{
  "version": 0.6,
  "generator": "Overpass API 0.7.62.1 084b4234",
  "osm3s": {
    "timestamp_osm_base": "2024-05-15T14:23:00Z",
    "copyright": "The data included in this document is from www.openstreetmap.org. The data is made available under ODbL."
  },
  "elements": [

{
  "type": "node",
  "id": 1259171744,
  "lat": 41.6686838,
  "lon": -0.8893830,
  "tags": {
    "access": "yes",
    "amenity": "bicycle_parking",
    "bicycle_parking": "stands",
    "capacity": "38",
    "covered": "no",
    "mapillary": "1413227305680527",
    "operator": "Ayuntamiento de Zaragoza",
    "operator:wikidata": "Q8210811"
  }
},
{
  "type": "node",
  "id": 1268294967,
  "lat": 41.6395489,
  "lon": -0.9083415,
  "tags": {
    "amenity": "bicycle_parking",
    "bicycle_parking": "stands",
    "capacity": "20",
    "covered": "no",
    "mapillary": "944136329677166"
  }
},
{
  "type": "node",
  "id": 1273377580,
  "lat": 41.6547076,
  "lon": -0.9043750,
  "tags": {
    "amenity": "bicycle_parking",
    "bicycle_parking": "stands",
    "covered": "no",
    "mapillary": "2976369135942080"
  }
},
{
  "type": "node",
  "id": 1273378052,
  "lat": 41.6542104,
  "lon": -0.9043705,
  "tags": {
    "amenity": "bicycle_parking",
    "bicycle_parking": "stands",
    "capacity": "12",
    "covered": "no",
    "mapillary": "881715752747018"
  }
},
{
  "type": "node",
  "id": 1312412505,
  "lat": 41.6830209,
  "lon": -0.8876301,
  "tags": {
    "amenity": "bicycle_parking",
    "bicycle_parking": "stands",
    "covered": "no",
    "mapillary": "970309343756334",
    "survey:date": "2018-05-16"
  }
},
{
  "type": "node",
  "id": 1786818867,
  "lat": 41.6296653,
  "lon": -0.8829684,
  "tags": {
    "amenity": "bicycle_parking",
    "bicycle_parking": "stands",
    "capacity": "14",
    "covered": "no",
    "fee": "no",
    "mapillary": "801747833798764",
    "operator": "Ayuntamiento de Zaragoza",
    "operator:wikidata": "Q8210811",
    "source": "survey",
    "supervised": "no"
  }
},
{
  "type": "node",
  "id": 1786818872,
  "lat": 41.6360380,
  "lon": -0.8690676,
  "tags": {
    "amenity": "bicycle_parking",
    "bicycle_parking": "stands",
    "covered": "no",
    "fee": "no",
    "mapillary": "1106277719783685",
    "operator": "Ayuntamiento de Zaragoza",
    "operator:wikidata": "Q8210811"
  }
},
{
  "type": "node",
  "id": 1786818878,
  "lat": 41.6379043,
  "lon": -0.9131869,
  "tags": {
    "amenity": "bicycle_parking",
    "bicycle_parking": "stands",
    "mapillary": "512571239919328",
    "source": "Ayuntamiento de Zaragoza",
    "survey:date": "2018-05-29"
  }
},
{
  "type": "node",
  "id": 1786818880,
  "lat": 41.6389778,
  "lon": -0.9006325,
  "tags": {
    "access": "yes",
    "amenity": "bicycle_parking",
    "bicycle_parking": "stands",
    "capacity": "10",
    "covered": "no",
    "mapillary": "1613432988851891",
    "operator": "Ayuntamiento de Zaragoza",
    "operator:wikidata": "Q8210811",
    "source": "Ayuntamiento de Zaragoza;survey"
  }
},
{
  "type": "node",
  "id": 1786818888,
  "lat": 41.6405152,
  "lon": -0.8990109,
  "tags": {
    "amenity": "bicycle_parking",
    "bicycle_parking": "stands",
    "fixme": "¿Quizás separar los aparcamientos para micro-mapping?",
    "mapillary": "1458603067826605",
    "source": "survey"
  }
},
{
  "type": "node",
  "id": 1786818892,
  "lat": 41.6416629,
  "lon": -0.9100762,
  "tags": {
    "amenity": "bicycle_parking",
    "bicycle_parking": "stands",
    "mapillary": "244689894102302",
    "source": "Ayuntamiento de Zaragoza",
    "survey:date": "2018-07-18"
  }
},
{
  "type": "node",
  "id": 1786818924,
  "lat": 41.6498813,
  "lon": -0.8646804,
  "tags": {
    "amenity": "bicycle_parking",
    "bicycle_parking": "stands",
    "capacity": "26",
    "covered": "no",
    "mapillary": "316243433205421",
    "source": "Ayuntamiento de Zaragoza",
    "survey:date": "2018-11-24"
  }
},
{
  "type": "node",
  "id": 1786818958,
  "lat": 41.6587899,
  "lon": -0.8888251,
  "tags": {
    "amenity": "bicycle_parking",
    "bicycle_parking": "stands",
    "capacity": "26",
    "covered": "no",
    "mapillary": "769244630460029",
    "source": "Ayuntamiento de Zaragoza"
  }
},
{
  "type": "node",
  "id": 1786818985,
  "lat": 41.6887477,
  "lon": -0.8734280,
  "tags": {
    "amenity": "bicycle_parking",
    "bicycle_parking": "stands",
    "capacity": "10",
    "mapillary": "749913645578795",
    "source": "Ayuntamiento de Zaragoza"
  }
},
{
  "type": "node",
  "id": 2508985874,
  "lat": 41.6525779,
  "lon": -0.8834882,
  "tags": {
    "access": "yes",
    "amenity": "bicycle_parking",
    "bicycle_parking": "stands",
    "capacity": "10",
    "covered": "no",
    "fee": "no",
    "lit": "yes",
    "mapillary": "824582215131799",
    "operator": "Ayuntamiento de Zaragoza",
    "operator:wikidata": "Q8210811",
    "supervised": "no",
    "surface": "paving_stones"
  }
},
{
  "type": "node",
  "id": 3051275719,
  "lat": 41.6830205,
  "lon": -0.8874349,
  "tags": {
    "amenity": "bicycle_parking",
    "bicycle_parking": "stands",
    "covered": "no",
    "mapillary": "155056859885942"
  }
},
{
  "type": "node",
  "id": 4030257573,
  "lat": 41.6326152,
  "lon": -0.8820171,
  "tags": {
    "amenity": "bicycle_parking",
    "bicycle_parking": "stands",
    "capacity": "12",
    "covered": "no",
    "mapillary": "3457346697699537"
  }
},
{
  "type": "node",
  "id": 4172780261,
  "lat": 41.6566899,
  "lon": -0.8853224,
  "tags": {
    "access": "yes",
    "amenity": "bicycle_parking",
    "bicycle_parking": "stands",
    "capacity": "32",
    "covered": "no",
    "fee": "no",
    "mapillary": "821141762167179",
    "operator": "Ayuntamiento de Zaragoza",
    "supervised": "no"
  }
},
{
  "type": "node",
  "id": 4200591777,
  "lat": 41.6419185,
  "lon": -0.8862935,
  "tags": {
    "access": "yes",
    "amenity": "bicycle_parking",
    "bicycle_parking": "stands",
    "capacity": "10",
    "check_date:capacity": "2022-08-20",
    "covered": "no",
    "fee": "no",
    "mapillary": "487640522584233",
    "operator": "Ayuntamiento de Zaragoza",
    "operator:wikidata": "Q8210811",
    "supervised": "no"
  }
},
{
  "type": "node",
  "id": 4224050089,
  "lat": 41.6340533,
  "lon": -0.8850875,
  "tags": {
    "access": "yes",
    "amenity": "bicycle_parking",
    "bicycle_parking": "stands",
    "capacity": "7",
    "covered": "no",
    "fee": "no",
    "mapillary": "495190311610305",
    "operator": "Ayuntamiento de Zaragoza",
    "operator:wikidata": "Q8210811"
  }
},
{
  "type": "node",
  "id": 4412508430,
  "lat": 41.6548281,
  "lon": -0.8786730,
  "tags": {
    "amenity": "bicycle_parking",
    "bicycle_parking": "stands",
    "capacity": "4",
    "covered": "no",
    "fee": "no",
    "mapillary": "1176073896170831"
  }
},
{
  "type": "node",
  "id": 4430774392,
  "lat": 41.6335366,
  "lon": -0.8904753,
  "tags": {
    "amenity": "bicycle_parking",
    "bicycle_parking": "stands",
    "capacity": "10",
    "check_date:capacity": "2022-05-28",
    "covered": "no",
    "fee": "no",
    "mapillary": "294112838869206"
  }
},
{
  "type": "node",
  "id": 4430818090,
  "lat": 41.6262311,
  "lon": -0.8765734,
  "tags": {
    "amenity": "bicycle_parking",
    "bicycle_parking": "stands",
    "capacity": "4",
    "covered": "no",
    "fee": "no",
    "mapillary": "289679522695420"
  }
},
{
  "type": "node",
  "id": 4442895132,
  "lat": 41.6365519,
  "lon": -0.8997223,
  "tags": {
    "amenity": "bicycle_parking",
    "bicycle_parking": "stands",
    "capacity": "26",
    "covered": "no",
    "fee": "no",
    "mapillary": "508625050328510"
  }
},
{
  "type": "node",
  "id": 4444279590,
  "lat": 41.6481399,
  "lon": -0.8845451,
  "tags": {
    "amenity": "bicycle_parking",
    "bicycle_parking": "stands",
    "capacity": "10",
    "check_date:capacity": "2022-05-01",
    "covered": "no",
    "fee": "no",
    "mapillary": "764914184219808",
    "operator": "Ayuntamiento de Zaragoza",
    "operator:wikidata": "Q8210811",
    "source": "survey",
    "supervised": "no"
  }
},
{
  "type": "node",
  "id": 4444385889,
  "lat": 41.6458324,
  "lon": -0.8849742,
  "tags": {
    "amenity": "bicycle_parking",
    "bicycle_parking": "stands",
    "capacity": "28",
    "check_date:capacity": "2022-05-02",
    "covered": "no",
    "fee": "no",
    "mapillary": "480336723385571",
    "operator": "Ayuntamiento de Zaragoza",
    "operator:wikidata": "Q8210811"
  }
},
{
  "type": "node",
  "id": 4453223796,
  "lat": 41.6581836,
  "lon": -0.8861241,
  "tags": {
    "amenity": "bicycle_parking",
    "bicycle_parking": "stands",
    "capacity": "10",
    "check_date:capacity": "2022-07-04",
    "covered": "no",
    "fee": "no",
    "mapillary": "214020083500647"
  }
},
{
  "type": "node",
  "id": 4456511490,
  "lat": 41.6486447,
  "lon": -0.8870000,
  "tags": {
    "amenity": "bicycle_parking",
    "bicycle_parking": "stands",
    "capacity": "14",
    "check_date:capacity": "2022-05-08",
    "covered": "no",
    "fee": "no",
    "mapillary": "1609217775934967",
    "opening_hours": "24/7",
    "operator": "Ayuntamiento de Zaragoza",
    "operator:wikidata": "Q8210811",
    "supervised": "no"
  }
},
{
  "type": "node",
  "id": 4456628892,
  "lat": 41.6503149,
  "lon": -0.8826642,
  "tags": {
    "amenity": "bicycle_parking",
    "bicycle_parking": "stands",
    "capacity": "10",
    "check_date:capacity": "2021-12-01",
    "covered": "no",
    "fee": "no",
    "mapillary": "2802889299976290",
    "operator": "Ayuntamiento de Zaragoza",
    "operator:wikidata": "Q8210811",
    "supervised": "no"
  }
},
{
  "type": "node",
  "id": 4456628990,
  "lat": 41.6394933,
  "lon": -0.8804612,
  "tags": {
    "amenity": "bicycle_parking",
    "bicycle_parking": "stands",
    "capacity": "10",
    "covered": "no",
    "fee": "no",
    "mapillary": "2615541405422009",
    "operator": "Ayuntamiento de Zaragoza",
    "operator:wikidata": "Q8210811",
    "supervised": "no"
  }
},
{
  "type": "node",
  "id": 4456737989,
  "lat": 41.6501444,
  "lon": -0.8830911,
  "tags": {
    "amenity": "bicycle_parking",
    "bicycle_parking": "stands",
    "capacity": "8",
    "check_date:capacity": "2022-06-15",
    "covered": "no",
    "fee": "no",
    "mapillary": "544645836523546",
    "operator": "Ayuntamiento de Zaragoza",
    "operator:wikidata": "Q8210811",
    "supervised": "no"
  }
},
{
  "type": "node",
  "id": 4461530889,
  "lat": 41.6751611,
  "lon": -0.8909725,
  "tags": {
    "amenity": "bicycle_parking",
    "bicycle_parking": "stands",
    "capacity": "16",
    "covered": "no",
    "mapillary": "1105386519991717",
    "operator": "Ayuntamiento de Zaragoza",
    "operator:wikidata": "Q8210811"
  }
},
{
  "type": "node",
  "id": 4473078806,
  "lat": 41.6361942,
  "lon": -0.8845397,
  "tags": {
    "access": "yes",
    "amenity": "bicycle_parking",
    "bicycle_parking": "stands",
    "capacity": "5",
    "covered": "no",
    "fee": "no",
    "mapillary": "466536997909230",
    "operator": "Ayuntamiento de Zaragoza",
    "supervised": "no"
  }
},
{
  "type": "node",
  "id": 4482096070,
  "lat": 41.6412997,
  "lon": -0.9004063,
  "tags": {
    "amenity": "bicycle_parking",
    "bicycle_parking": "stands",
    "capacity": "32",
    "covered": "yes",
    "fee": "no",
    "mapillary": "766568990667687",
    "supervised": "no"
  }
},
{
  "type": "node",
  "id": 4483161639,
  "lat": 41.6278071,
  "lon": -0.8794165,
  "tags": {
    "access": "yes",
    "amenity": "bicycle_parking",
    "bicycle_parking": "stands",
    "capacity": "12",
    "covered": "no",
    "fee": "no",
    "mapillary": "257932249351203",
    "operator": "Ayuntamiento de Zaragoza",
    "operator:wikidata": "Q8210811",
    "supervised": "no",
    "surface": "dirt"
  }
},
{
  "type": "node",
  "id": 4492687092,
  "lat": 41.6687534,
  "lon": -0.8895841,
  "tags": {
    "amenity": "bicycle_parking",
    "bicycle_parking": "stands",
    "capacity": "10",
    "covered": "no",
    "mapillary": "194205832427336",
    "survey:date": "2018-04-12"
  }
},
{
  "type": "node",
  "id": 4493096950,
  "lat": 41.6417880,
  "lon": -0.9012024,
  "tags": {
    "amenity": "bicycle_parking",
    "bicycle_parking": "stands",
    "capacity": "48",
    "covered": "no",
    "fee": "no",
    "mapillary": "1144164342717027",
    "supervised": "no",
    "surface": "asphalt"
  }
},
{
  "type": "node",
  "id": 4530421751,
  "lat": 41.6246293,
  "lon": -0.8761194,
  "tags": {
    "amenity": "bicycle_parking",
    "bicycle_parking": "stands",
    "capacity": "8",
    "covered": "no",
    "fee": "no",
    "mapillary": "5504240899617973",
    "operator": "Ayuntamiento de Zaragoza",
    "operator:wikidata": "Q8210811",
    "source": "survey",
    "supervised": "no"
  }
},
{
  "type": "node",
  "id": 4541448068,
  "lat": 41.6624323,
  "lon": -0.8699815,
  "tags": {
    "amenity": "bicycle_parking",
    "bicycle_parking": "stands",
    "capacity": "12",
    "covered": "no",
    "fee": "no",
    "mapillary": "290885565815341",
    "operator": "Ayuntamiento de Zaragoza",
    "operator:wikidata": "Q8210811",
    "source": "survey",
    "supervised": "no"
  }
},
{
  "type": "node",
  "id": 4541838500,
  "lat": 41.6618566,
  "lon": -0.8692971,
  "tags": {
    "amenity": "bicycle_parking",
    "bicycle_parking": "stands",
    "capacity": "10",
    "covered": "no",
    "fee": "no",
    "mapillary": "1460247570982268",
    "operator": "Ayuntamiento de Zaragoza",
    "operator:wikidata": "Q8210811",
    "source": "survey",
    "supervised": "no"
  }
},
{
  "type": "node",
  "id": 4543617935,
  "lat": 41.6472788,
  "lon": -0.8849158,
  "tags": {
    "amenity": "bicycle_parking",
    "bicycle_parking": "stands",
    "capacity": "10",
    "check_date:capacity": "2022-07-16",
    "covered": "no",
    "fee": "no",
    "mapillary": "365108658257385",
    "operator": "Ayuntamiento de Zaragoza",
    "operator:wikidata": "Q8210811",
    "source": "survey"
  }
},
{
  "type": "node",
  "id": 4561513460,
  "lat": 41.6397878,
  "lon": -0.8810722,
  "tags": {
    "amenity": "bicycle_parking",
    "bicycle_parking": "stands",
    "capacity": "10",
    "covered": "no",
    "fee": "no",
    "mapillary": "4028519367204583",
    "opening_hours": "24/7",
    "operator": "Ayuntamiento de Zaragoza",
    "supervised": "no"
  }
},
{
  "type": "node",
  "id": 4563572730,
  "lat": 41.6444521,
  "lon": -0.8762454,
  "tags": {
    "amenity": "bicycle_parking",
    "bicycle_parking": "stands",
    "capacity": "12",
    "covered": "no",
    "fee": "no",
    "mapillary": "1333287940404370",
    "opening_hours": "24/7",
    "operator": "Ayuntamiento de Zaragoza",
    "operator:wikidata": "Q8210811",
    "supervised": "no"
  }
},
{
  "type": "node",
  "id": 4573972322,
  "lat": 41.6566787,
  "lon": -0.8822376,
  "tags": {
    "access": "yes",
    "amenity": "bicycle_parking",
    "bicycle_parking": "stands",
    "capacity": "20",
    "check_date:capacity": "2022-06-15",
    "covered": "no",
    "fee": "no",
    "lit": "yes",
    "mapillary": "180747297241428",
    "operator": "Ayuntamiento de Zaragoza",
    "operator:wikidata": "Q8210811",
    "source": "survey",
    "supervised": "no"
  }
},
{
  "type": "node",
  "id": 4589136426,
  "lat": 41.6378154,
  "lon": -0.8977253,
  "tags": {
    "amenity": "bicycle_parking",
    "bicycle_parking": "stands",
    "capacity": "6",
    "covered": "no",
    "fee": "no",
    "mapillary": "291100435942171",
    "opening_hours": "24/7",
    "operator": "Ayuntamiento de Zaragoza",
    "operator:wikidata": "Q8210811",
    "supervised": "no"
  }
},
{
  "type": "node",
  "id": 4592624672,
  "lat": 41.6726717,
  "lon": -0.8740557,
  "tags": {
    "amenity": "bicycle_parking",
    "bicycle_parking": "stands",
    "capacity": "8",
    "covered": "no",
    "fee": "no",
    "mapillary": "326147869075701",
    "operator": "Ayuntamiento de Zaragoza",
    "source": "survey",
    "supervised": "no"
  }
},
{
  "type": "node",
  "id": 4592626442,
  "lat": 41.6432843,
  "lon": -0.8859883,
  "tags": {
    "amenity": "bicycle_parking",
    "bicycle_parking": "stands",
    "capacity": "14",
    "check_date:capacity": "2022-05-02",
    "covered": "no",
    "fee": "no",
    "mapillary": "5490980527641976",
    "operator": "Ayuntamiento de Zaragoza",
    "operator:wikidata": "Q8210811",
    "source": "survey",
    "supervised": "no"
  }
},
{
  "type": "node",
  "id": 4600518573,
  "lat": 41.6424148,
  "lon": -0.8917015,
  "tags": {
    "access": "yes",
    "amenity": "bicycle_parking",
    "bicycle_parking": "stands",
    "capacity": "12",
    "covered": "no",
    "fee": "no",
    "mapillary": "2920404568277775",
    "operator": "Ayuntamiento de Zaragoza",
    "source": "survey"
  }
},
{
  "type": "node",
  "id": 4607612169,
  "lat": 41.6632087,
  "lon": -0.8719828,
  "tags": {
    "amenity": "bicycle_parking",
    "bicycle_parking": "stands",
    "capacity": "10",
    "covered": "no",
    "fee": "no",
    "mapillary": "3986677594703280",
    "operator": "Ayuntamiento de Zaragoza",
    "operator:wikidata": "Q8210811",
    "source": "survey"
  }
},
{
  "type": "node",
  "id": 4607617040,
  "lat": 41.6635547,
  "lon": -0.8723833,
  "tags": {
    "amenity": "bicycle_parking",
    "bicycle_parking": "stands",
    "capacity": "10",
    "covered": "no",
    "fee": "no",
    "mapillary": "765638487428916",
    "operator": "Ayuntamiento de Zaragoza",
    "operator:wikidata": "Q8210811",
    "source": "survey"
  }
},
{
  "type": "node",
  "id": 4612254074,
  "lat": 41.6728673,
  "lon": -0.8729427,
  "tags": {
    "amenity": "bicycle_parking",
    "bicycle_parking": "stands",
    "capacity": "8",
    "covered": "no",
    "fee": "no",
    "mapillary": "292767918988954",
    "operator": "Ayuntamiento de Zaragoza",
    "source": "survey",
    "supervised": "no"
  }
},
{
  "type": "node",
  "id": 4628927512,
  "lat": 41.6830254,
  "lon": -0.8872465,
  "tags": {
    "amenity": "bicycle_parking",
    "bicycle_parking": "stands",
    "capacity": "12",
    "covered": "no",
    "mapillary": "368471111189355"
  }
},
{
  "type": "node",
  "id": 4630132609,
  "lat": 41.6475375,
  "lon": -0.8805282,
  "tags": {
    "access": "yes",
    "amenity": "bicycle_parking",
    "bicycle_parking": "stands",
    "capacity": "14",
    "check_date:capacity": "2021-05-26",
    "covered": "no",
    "fee": "no",
    "mapillary": "1253055008469622",
    "operator": "Ayuntamiento de Zaragoza",
    "operator:wikidata": "Q8210811",
    "source": "survey",
    "supervised": "no"
  }
},
{
  "type": "node",
  "id": 4641849752,
  "lat": 41.6452064,
  "lon": -0.8774130,
  "tags": {
    "access": "yes",
    "amenity": "bicycle_parking",
    "bicycle_parking": "stands",
    "capacity": "12",
    "check_date:capacity": "2022-05-05",
    "covered": "no",
    "fee": "no",
    "mapillary": "2893161874264515",
    "operator": "Ayuntamiento de Zaragoza",
    "operator:wikidata": "Q8210811",
    "source": "survey",
    "supervised": "no"
  }
},
{
  "type": "node",
  "id": 4683454003,
  "lat": 41.6834203,
  "lon": -0.8853388,
  "tags": {
    "amenity": "bicycle_parking",
    "bicycle_parking": "stands",
    "capacity": "18",
    "covered": "yes",
    "mapillary": "503604074164379"
  }
},
{
  "type": "node",
  "id": 4683454004,
  "lat": 41.6833595,
  "lon": -0.8850312,
  "tags": {
    "amenity": "bicycle_parking",
    "bicycle_parking": "stands",
    "covered": "yes",
    "mapillary": "284109623347331"
  }
},
{
  "type": "node",
  "id": 4691937170,
  "lat": 41.6762332,
  "lon": -0.8906236,
  "tags": {
    "access": "yes",
    "amenity": "bicycle_parking",
    "bicycle_parking": "stands",
    "capacity": "10",
    "covered": "no",
    "fee": "no",
    "mapillary": "465720027989137",
    "operator": "Ayuntamiento de Zaragoza",
    "operator:wikidata": "Q8210811",
    "source": "survey",
    "supervised": "no"
  }
},
{
  "type": "node",
  "id": 4692946789,
  "lat": 41.6680659,
  "lon": -0.8716413,
  "tags": {
    "amenity": "bicycle_parking",
    "bicycle_parking": "stands",
    "capacity": "6",
    "mapillary": "492781585097394"
  }
},
{
  "type": "node",
  "id": 4692946790,
  "lat": 41.6699530,
  "lon": -0.8712391,
  "tags": {
    "amenity": "bicycle_parking",
    "bicycle_parking": "stands",
    "capacity": "10",
    "mapillary": "902025880357373"
  }
},
{
  "type": "node",
  "id": 4708807981,
  "lat": 41.6409913,
  "lon": -0.8676983,
  "tags": {
    "amenity": "bicycle_parking",
    "bicycle_parking": "stands",
    "capacity": "24",
    "fee": "no",
    "mapillary": "476312893479612"
  }
},
{
  "type": "node",
  "id": 4708819251,
  "lat": 41.6597119,
  "lon": -0.8915723,
  "tags": {
    "access": "yes",
    "amenity": "bicycle_parking",
    "bicycle_parking": "stands",
    "capacity": "20",
    "covered": "no",
    "fee": "no",
    "mapillary": "151314120283304",
    "operator": "Ayuntamiento de Zaragoza",
    "operator:wikidata": "Q8210811",
    "source": "survey",
    "supervised": "no"
  }
},
{
  "type": "node",
  "id": 4723021702,
  "lat": 41.6768809,
  "lon": -0.8891058,
  "tags": {
    "amenity": "bicycle_parking",
    "bicycle_parking": "stands",
    "capacity": "10",
    "covered": "yes",
    "fee": "no",
    "mapillary": "540503980669525",
    "operator": "Ayuntamiento de Zaragoza",
    "operator:wikidata": "Q8210811"
  }
},
{
  "type": "node",
  "id": 4730949161,
  "lat": 41.6663484,
  "lon": -0.8719578,
  "tags": {
    "amenity": "bicycle_parking",
    "bicycle_parking": "stands",
    "capacity": "8",
    "covered": "no",
    "fee": "no",
    "mapillary": "813993966213823",
    "operator": "Ayuntamiento de Zaragoza",
    "operator:wikidata": "Q8210811"
  }
},
{
  "type": "node",
  "id": 4731116398,
  "lat": 41.6413528,
  "lon": -0.8689866,
  "tags": {
    "amenity": "bicycle_parking",
    "bicycle_parking": "stands",
    "capacity": "6",
    "covered": "no",
    "fee": "no",
    "mapillary": "883824942198040",
    "operator": "Ayuntamiento de Zaragoza",
    "operator:wikidata": "Q8210811",
    "supervised": "no"
  }
},
{
  "type": "node",
  "id": 4731116399,
  "lat": 41.6413203,
  "lon": -0.8690271,
  "tags": {
    "amenity": "bicycle_parking",
    "bicycle_parking": "stands",
    "capacity": "4",
    "covered": "no",
    "fee": "no",
    "mapillary": "290905669350261",
    "operator": "Ayuntamiento de Zaragoza",
    "operator:wikidata": "Q8210811",
    "supervised": "no"
  }
},
{
  "type": "node",
  "id": 4787251397,
  "lat": 41.6483947,
  "lon": -0.8668323,
  "tags": {
    "amenity": "bicycle_parking",
    "bicycle_parking": "stands",
    "capacity": "18",
    "covered": "no",
    "mapillary": "1090188044822966",
    "operator": "Ayuntamiento de Zaragoza",
    "operator:wikidata": "Q8210811"
  }
},
{
  "type": "node",
  "id": 4804234447,
  "lat": 41.6640170,
  "lon": -0.8684048,
  "tags": {
    "amenity": "bicycle_parking",
    "bicycle_parking": "stands",
    "capacity": "20",
    "covered": "no",
    "fee": "no",
    "mapillary": "1129933420852467",
    "operator": "Ayuntamiento de Zaragoza",
    "operator:wikidata": "Q8210811",
    "supervised": "no"
  }
},
{
  "type": "node",
  "id": 4804234448,
  "lat": 41.6638580,
  "lon": -0.8680965,
  "tags": {
    "amenity": "bicycle_parking",
    "bicycle_parking": "stands",
    "capacity": "14",
    "covered": "no",
    "fee": "no",
    "mapillary": "868797860644268",
    "operator": "Ayuntamiento de Zaragoza",
    "operator:wikidata": "Q8210811",
    "supervised": "no"
  }
},
{
  "type": "node",
  "id": 4811927735,
  "lat": 41.6386491,
  "lon": -0.8865425,
  "tags": {
    "access": "yes",
    "amenity": "bicycle_parking",
    "bicycle_parking": "stands",
    "capacity": "8",
    "check_date:capacity": "2022-08-20",
    "covered": "no",
    "mapillary": "474527153966941",
    "operator": "Ayuntamiento de Zaragoza",
    "operator:wikidata": "Q8210811",
    "source": "survey",
    "supervised": "no"
  }
},
{
  "type": "node",
  "id": 4821161617,
  "lat": 41.6629513,
  "lon": -0.8835550,
  "tags": {
    "access": "yes",
    "amenity": "bicycle_parking",
    "bicycle_parking": "stands",
    "capacity": "8",
    "covered": "no",
    "fee": "no",
    "mapillary": "314285103432913",
    "operator": "Ayuntamiento de Zaragoza",
    "operator:wikidata": "Q8210811",
    "supervised": "no"
  }
},
{
  "type": "node",
  "id": 4825700122,
  "lat": 41.6457690,
  "lon": -0.8698478,
  "tags": {
    "amenity": "bicycle_parking",
    "bicycle_parking": "stands",
    "capacity": "10",
    "mapillary": "207117251024404"
  }
},
{
  "type": "node",
  "id": 4826022222,
  "lat": 41.6409682,
  "lon": -0.8915175,
  "tags": {
    "amenity": "bicycle_parking",
    "bicycle_parking": "stands",
    "capacity": "6",
    "covered": "no",
    "mapillary": "206922377926404",
    "survey:date": "2018-07-18"
  }
},
{
  "type": "node",
  "id": 4827054432,
  "lat": 41.6615697,
  "lon": -0.8729577,
  "tags": {
    "amenity": "bicycle_parking",
    "bicycle_parking": "stands",
    "covered": "no",
    "mapillary": "1531423137189009",
    "survey:date": "2018-05-25"
  }
},
{
  "type": "node",
  "id": 4827054433,
  "lat": 41.6617346,
  "lon": -0.8732333,
  "tags": {
    "amenity": "bicycle_parking",
    "bicycle_parking": "stands",
    "capacity": "10",
    "covered": "no",
    "mapillary": "627105094913474"
  }
},
{
  "type": "node",
  "id": 4827113723,
  "lat": 41.6610983,
  "lon": -0.8732327,
  "tags": {
    "amenity": "bicycle_parking",
    "bicycle_parking": "stands",
    "mapillary": "325298355661947",
    "survey:date": "2018-07-20"
  }
},
{
  "type": "node",
  "id": 4831077058,
  "lat": 41.6422703,
  "lon": -0.8733328,
  "tags": {
    "access": "yes",
    "amenity": "bicycle_parking",
    "bicycle_parking": "stands",
    "capacity": "8",
    "covered": "no",
    "fee": "no",
    "mapillary": "556620411987028",
    "opening_hours": "24/7",
    "operator": "Ayuntamiento de Zaragoza",
    "operator:wikidata": "Q8210811",
    "supervised": "no",
    "survey:date": "2018-05-25"
  }
},
{
  "type": "node",
  "id": 4831325322,
  "lat": 41.6838518,
  "lon": -0.8873564,
  "tags": {
    "amenity": "bicycle_parking",
    "bicycle_parking": "stands",
    "capacity": "12",
    "covered": "yes",
    "mapillary": "142808364523105"
  }
},
{
  "type": "node",
  "id": 4838915221,
  "lat": 41.6329862,
  "lon": -0.9040041,
  "tags": {
    "access": "yes",
    "amenity": "bicycle_parking",
    "bicycle_parking": "stands",
    "capacity": "6",
    "fee": "no",
    "mapillary": "963209154489161",
    "opening_hours": "24/7",
    "operator": "Ayuntamiento de Zaragoza",
    "operator:wikidata": "Q8210811",
    "supervised": "no"
  }
},
{
  "type": "node",
  "id": 4838922065,
  "lat": 41.6349246,
  "lon": -0.9014064,
  "tags": {
    "access": "yes",
    "amenity": "bicycle_parking",
    "bicycle_parking": "stands",
    "capacity": "10",
    "covered": "no",
    "fee": "no",
    "lit": "yes",
    "mapillary": "301436958247346",
    "opening_hours": "24/7",
    "operator": "Ayuntamiento de Zaragoza",
    "operator:wikidata": "Q8210811",
    "supervised": "no"
  }
},
{
  "type": "node",
  "id": 4852428521,
  "lat": 41.6218967,
  "lon": -0.9197138,
  "tags": {
    "amenity": "bicycle_parking",
    "bicycle_parking": "stands",
    "capacity": "10",
    "mapillary": "2881534572161728",
    "survey:date": "2018-09-10"
  }
},
{
  "type": "node",
  "id": 4860700869,
  "lat": 41.6407626,
  "lon": -0.8844719,
  "tags": {
    "amenity": "bicycle_parking",
    "bicycle_parking": "stands",
    "capacity": "12",
    "covered": "no",
    "mapillary": "473056347137904",
    "survey:date": "2019-12-10"
  }
},
{
  "type": "node",
  "id": 4862103923,
  "lat": 41.6769605,
  "lon": -0.8910663,
  "tags": {
    "amenity": "bicycle_parking",
    "bicycle_parking": "stands",
    "capacity": "10",
    "covered": "no",
    "mapillary": "214259000131025",
    "operator": "Ayuntamiento de Zaragoza",
    "operator:wikidata": "Q8210811"
  }
},
{
  "type": "node",
  "id": 4879884952,
  "lat": 41.6247955,
  "lon": -0.8802190,
  "tags": {
    "access": "yes",
    "amenity": "bicycle_parking",
    "bicycle_parking": "stands",
    "capacity": "10",
    "mapillary": "996172551121540",
    "operator": "Ayuntamiento de Zaragoza",
    "operator:wikidata": "Q8210811",
    "supervised": "no"
  }
},
{
  "type": "node",
  "id": 4889341121,
  "lat": 41.6499860,
  "lon": -0.8878359,
  "tags": {
    "amenity": "bicycle_parking",
    "bicycle_parking": "stands",
    "capacity": "10",
    "check_date:capacity": "2022-05-08",
    "covered": "no",
    "mapillary": "2797195663877601",
    "operator": "Ayuntamiento de Zaragoza",
    "operator:wikidata": "Q8210811"
  }
},
{
  "type": "node",
  "id": 4889357021,
  "lat": 41.6629046,
  "lon": -0.8881348,
  "tags": {
    "amenity": "bicycle_parking",
    "bicycle_parking": "stands",
    "capacity": "10",
    "covered": "no",
    "mapillary": "272953984563048"
  }
},
{
  "type": "node",
  "id": 4892248435,
  "lat": 41.6834246,
  "lon": -0.8886617,
  "tags": {
    "access": "yes",
    "amenity": "bicycle_parking",
    "bicycle_parking": "stands",
    "capacity": "80",
    "covered": "yes",
    "fee": "no",
    "mapillary": "757478791807797",
    "operator": "Unizar",
    "operator:type": "public",
    "survey:date": "2018-06-05"
  }
},
{
  "type": "node",
  "id": 4902963124,
  "lat": 41.6585751,
  "lon": -0.8928547,
  "tags": {
    "access": "yes",
    "amenity": "bicycle_parking",
    "bicycle_parking": "stands",
    "capacity": "14",
    "covered": "no",
    "fee": "no",
    "mapillary": "792470411398666",
    "opening_hours": "24/7",
    "operator": "Ayuntamiento de Zaragoza",
    "operator:wikidata": "Q8210811",
    "supervised": "no"
  }
},
{
  "type": "node",
  "id": 4902963125,
  "lat": 41.6561068,
  "lon": -0.8940553,
  "tags": {
    "access": "yes",
    "amenity": "bicycle_parking",
    "bicycle_parking": "stands",
    "capacity": "10",
    "covered": "no",
    "fee": "no",
    "mapillary": "374285800598196",
    "opening_hours": "24/7",
    "operator": "Ayuntamiento de Zaragoza",
    "operator:wikidata": "Q8210811",
    "supervised": "no"
  }
},
{
  "type": "node",
  "id": 4906433625,
  "lat": 41.6210725,
  "lon": -0.9242397,
  "tags": {
    "amenity": "bicycle_parking",
    "capacity": "8",
    "mapillary": "188081743042752"
  }
},
{
  "type": "node",
  "id": 4908001921,
  "lat": 41.6722382,
  "lon": -0.8879615,
  "tags": {
    "amenity": "bicycle_parking",
    "bicycle_parking": "stands",
    "capacity": "18",
    "mapillary": "282822753385267",
    "note": "La capacidad original es de 20 bicis, pero alguien arrancó uno de los soportes y actualmente la capacidad es de 18 bicis."
  }
},
{
  "type": "node",
  "id": 4935899221,
  "lat": 41.6294819,
  "lon": -0.8734256,
  "tags": {
    "amenity": "bicycle_parking",
    "capacity": "7",
    "mapillary": "449911356070989"
  }
},
{
  "type": "node",
  "id": 4940190160,
  "lat": 41.6437282,
  "lon": -0.8910581,
  "tags": {
    "access": "yes",
    "amenity": "bicycle_parking",
    "bicycle_parking": "stands",
    "capacity": "10",
    "covered": "no",
    "fee": "no",
    "mapillary": "166973072000928",
    "operator": "Ayuntamiento de Zaragoza",
    "operator:wikidata": "Q8210811"
  }
},
{
  "type": "node",
  "id": 4941280309,
  "lat": 41.6585102,
  "lon": -0.8925593,
  "tags": {
    "access": "yes",
    "amenity": "bicycle_parking",
    "bicycle_parking": "stands",
    "capacity": "14",
    "covered": "no",
    "fee": "no",
    "lit": "yes",
    "mapillary": "594956215231044",
    "opening_hours": "24/7",
    "operator": "Ayuntamiento de Zaragoza",
    "operator:wikidata": "Q8210811"
  }
},
{
  "type": "node",
  "id": 4942912414,
  "lat": 41.6859769,
  "lon": -0.8880945,
  "tags": {
    "access": "yes",
    "amenity": "bicycle_parking",
    "bicycle_parking": "stands",
    "capacity": "6",
    "covered": "no",
    "fee": "no",
    "lit": "no",
    "mapillary": "516451069380441",
    "opening_hours": "24/7"
  }
},
{
  "type": "node",
  "id": 4947750294,
  "lat": 41.6718521,
  "lon": -0.8750599,
  "tags": {
    "amenity": "bicycle_parking",
    "bicycle_parking": "stands",
    "capacity": "10",
    "mapillary": "276439810851236",
    "operator": "Ayuntamiento de Zaragoza",
    "operator:wikidata": "Q8210811",
    "source": "survey"
  }
},
{
  "type": "node",
  "id": 4955205422,
  "lat": 41.6404942,
  "lon": -0.9015157,
  "tags": {
    "access": "yes",
    "amenity": "bicycle_parking",
    "bicycle_parking": "stands",
    "capacity": "6",
    "covered": "no",
    "fee": "no",
    "mapillary": "517077849468694",
    "operator": "Ayuntamiento de Zaragoza",
    "operator:wikidata": "Q8210811",
    "supervised": "no"
  }
},
{
  "type": "node",
  "id": 4955207021,
  "lat": 41.6405671,
  "lon": -0.9017530,
  "tags": {
    "amenity": "bicycle_parking",
    "bicycle_parking": "stands",
    "mapillary": "206781024612227",
    "survey:date": "2019-07-26"
  }
},
{
  "type": "node",
  "id": 4963624152,
  "lat": 41.6736624,
  "lon": -0.8748114,
  "tags": {
    "access": "yes",
    "amenity": "bicycle_parking",
    "bicycle_parking": "stands",
    "capacity": "10",
    "covered": "no",
    "fee": "no",
    "mapillary": "921541018667271",
    "operator": "Ayuntamiento de Zaragoza",
    "operator:wikidata": "Q8210811",
    "supervised": "no"
  }
},
{
  "type": "node",
  "id": 4995165823,
  "lat": 41.6407755,
  "lon": -0.8626961,
  "tags": {
    "amenity": "bicycle_parking",
    "bicycle_parking": "stands",
    "capacity": "10",
    "mapillary": "3770011009775846"
  }
},
{
  "type": "node",
  "id": 4995165826,
  "lat": 41.6394096,
  "lon": -0.8630616,
  "tags": {
    "amenity": "bicycle_parking",
    "bicycle_parking": "stands",
    "capacity": "6",
    "mapillary": "279615813839194"
  }
},
{
  "type": "node",
  "id": 4995165827,
  "lat": 41.6395404,
  "lon": -0.8631664,
  "tags": {
    "amenity": "bicycle_parking",
    "bicycle_parking": "stands",
    "capacity": "10",
    "mapillary": "855264768393092"
  }
},
{
  "type": "node",
  "id": 5035011526,
  "lat": 41.6326410,
  "lon": -0.8762481,
  "tags": {
    "amenity": "bicycle_parking",
    "bicycle_parking": "stands",
    "capacity": "4",
    "covered": "no",
    "fee": "no",
    "lit": "yes",
    "mapillary": "1151757911953683",
    "opening_hours": "24/7",
    "operator": "Ayuntamiento de Zaragoza",
    "operator:wikidata": "Q8210811",
    "supervised": "no",
    "surface": "paving_stones"
  }
},
{
  "type": "node",
  "id": 5043361424,
  "lat": 41.6358144,
  "lon": -0.8655187,
  "tags": {
    "amenity": "bicycle_parking",
    "bicycle_parking": "stands",
    "mapillary": "287860554043404",
    "survey:date": "2023-10-02"
  }
},
{
  "type": "node",
  "id": 5043391921,
  "lat": 41.6438500,
  "lon": -0.8696575,
  "tags": {
    "amenity": "bicycle_parking",
    "bicycle_parking": "stands",
    "mapillary": "4007285886005442",
    "survey:date": "2018-07-30"
  }
},
{
  "type": "node",
  "id": 5045113024,
  "lat": 41.6556968,
  "lon": -0.8965373,
  "tags": {
    "access": "yes",
    "amenity": "bicycle_parking",
    "bicycle_parking": "stands",
    "capacity": "16",
    "covered": "no",
    "mapillary": "155979146374421",
    "operator": "Ayuntamiento de Zaragoza",
    "operator:wikidata": "Q8210811",
    "supervised": "no"
  }
},
{
  "type": "node",
  "id": 5045113226,
  "lat": 41.6549712,
  "lon": -0.8971281,
  "tags": {
    "access": "yes",
    "amenity": "bicycle_parking",
    "bicycle_parking": "stands",
    "capacity": "10",
    "covered": "no",
    "mapillary": "174045897953160",
    "operator": "Ayuntamiento de Zaragoza",
    "operator:wikidata": "Q8210811",
    "supervised": "no"
  }
},
{
  "type": "node",
  "id": 5046685724,
  "lat": 41.6409262,
  "lon": -0.9132949,
  "tags": {
    "access": "yes",
    "amenity": "bicycle_parking",
    "bicycle_parking": "stands",
    "capacity": "12",
    "covered": "no",
    "mapillary": "863673064185625",
    "operator": "Ayuntamiento de Zaragoza",
    "operator:wikidata": "Q8210811",
    "supervised": "no"
  }
},
{
  "type": "node",
  "id": 5046716722,
  "lat": 41.6411383,
  "lon": -0.9116228,
  "tags": {
    "amenity": "bicycle_parking",
    "bicycle_parking": "stands",
    "capacity": "12",
    "covered": "no",
    "mapillary": "299908108381246",
    "operator": "Ayuntamiento de Zaragoza",
    "operator:wikidata": "Q8210811",
    "supervised": "no"
  }
},
{
  "type": "node",
  "id": 5047856224,
  "lat": 41.6416396,
  "lon": -0.9101506,
  "tags": {
    "amenity": "bicycle_parking",
    "bicycle_parking": "stands",
    "mapillary": "197494208857839",
    "source": "survey",
    "survey:date": "2018-07-23"
  }
},
{
  "type": "node",
  "id": 5047856225,
  "lat": 41.6418313,
  "lon": -0.9102692,
  "tags": {
    "amenity": "bicycle_parking",
    "bicycle_parking": "stands",
    "mapillary": "529706411521879",
    "source": "survey",
    "survey:date": "2018-05-08"
  }
},
{
  "type": "node",
  "id": 5100178429,
  "lat": 41.6519574,
  "lon": -0.8636761,
  "tags": {
    "amenity": "bicycle_parking",
    "bicycle_parking": "stands",
    "capacity": "10",
    "covered": "no",
    "mapillary": "146204664144638",
    "survey:date": "2018-06-07"
  }
},
{
  "type": "node",
  "id": 5105591922,
  "lat": 41.6322377,
  "lon": -0.8869393,
  "tags": {
    "access": "yes",
    "amenity": "bicycle_parking",
    "bicycle_parking": "stands",
    "capacity": "8",
    "covered": "no",
    "mapillary": "484319479281056",
    "operator": "Ayuntamiento de Zaragoza",
    "operator:wikidata": "Q8210811",
    "source": "survey",
    "supervised": "no"
  }
},
{
  "type": "node",
  "id": 5110077074,
  "lat": 41.6360385,
  "lon": -0.9410306,
  "tags": {
    "amenity": "bicycle_parking",
    "bicycle_parking": "stands",
    "capacity": "14",
    "mapillary": "235391028316062"
  }
},
{
  "type": "node",
  "id": 5110119379,
  "lat": 41.6525210,
  "lon": -0.9123950,
  "tags": {
    "amenity": "bicycle_parking",
    "bicycle_parking": "stands",
    "capacity": "6",
    "mapillary": "329412295269749"
  }
},
{
  "type": "node",
  "id": 5124939723,
  "lat": 41.6488367,
  "lon": -0.8889352,
  "tags": {
    "amenity": "bicycle_parking",
    "bicycle_parking": "stands",
    "capacity": "10",
    "covered": "no",
    "mapillary": "311686963854190",
    "survey:date": "2017-06-30"
  }
},
{
  "type": "node",
  "id": 5138645177,
  "lat": 41.6517721,
  "lon": -0.8811072,
  "tags": {
    "amenity": "bicycle_parking",
    "bicycle_parking": "stands",
    "capacity": "12",
    "check_date:capacity": "2022-06-15",
    "covered": "no",
    "fee": "no",
    "lit": "yes",
    "mapillary": "320937406059780",
    "opening_hours": "24/7",
    "operator": "Ayuntamiento de Zaragoza",
    "operator:wikidata": "Q8210811",
    "supervised": "no"
  }
},
{
  "type": "node",
  "id": 5181612078,
  "lat": 41.6328633,
  "lon": -0.8813660,
  "tags": {
    "access": "yes",
    "amenity": "bicycle_parking",
    "bicycle_parking": "stands",
    "capacity": "10",
    "covered": "no",
    "mapillary": "759174694750625",
    "operator": "Ayuntamiento de Zaragoza",
    "supervised": "no"
  }
},
{
  "type": "node",
  "id": 5182042022,
  "lat": 41.6342799,
  "lon": -0.8803673,
  "tags": {
    "access": "yes",
    "amenity": "bicycle_parking",
    "bicycle_parking": "stands",
    "capacity": "8",
    "covered": "no",
    "mapillary": "1207141793055741",
    "operator": "Ayuntamiento de Zaragoza",
    "supervised": "no"
  }
},
{
  "type": "node",
  "id": 5198928398,
  "lat": 41.6359861,
  "lon": -0.9033485,
  "tags": {
    "access": "yes",
    "amenity": "bicycle_parking",
    "bicycle_parking": "stands",
    "capacity": "7",
    "covered": "no",
    "mapillary": "1398479970533964",
    "opening_hours": "24/7",
    "operator": "Ayuntamiento de Zaragoza",
    "operator:wikidata": "Q8210811",
    "supervised": "no"
  }
},
{
  "type": "node",
  "id": 5220485984,
  "lat": 41.6376575,
  "lon": -0.8904995,
  "tags": {
    "amenity": "bicycle_parking",
    "bicycle_parking": "stands",
    "capacity": "12",
    "covered": "no",
    "mapillary": "758305948184852",
    "operator": "Ayuntamiento de Zaragoza",
    "operator:wikidata": "Q8210811"
  }
},
{
  "type": "node",
  "id": 5222405853,
  "lat": 41.6350644,
  "lon": -0.9108389,
  "tags": {
    "access": "yes",
    "amenity": "bicycle_parking",
    "bicycle_parking": "stands",
    "capacity": "20",
    "covered": "no",
    "mapillary": "766048494071614",
    "operator": "Ayuntamiento de Zaragoza",
    "operator:wikidata": "Q8210811"
  }
},
{
  "type": "node",
  "id": 5224913021,
  "lat": 41.6400904,
  "lon": -0.8870292,
  "tags": {
    "amenity": "bicycle_parking",
    "bicycle_parking": "stands",
    "mapillary": "284130220009200",
    "operator": "Ayuntamiento de Zaragoza",
    "operator:wikidata": "Q8210811",
    "survey:date": "2018-07-27"
  }
},
{
  "type": "node",
  "id": 5226298126,
  "lat": 41.6295744,
  "lon": -0.9076385,
  "tags": {
    "access": "yes",
    "amenity": "bicycle_parking",
    "bicycle_parking": "stands",
    "capacity": "10",
    "covered": "no",
    "mapillary": "796214494663074",
    "operator": "Ayuntamiento de Zaragoza",
    "operator:wikidata": "Q8210811",
    "supervised": "no"
  }
},
{
  "type": "node",
  "id": 5257783217,
  "lat": 41.6561300,
  "lon": -0.8571619,
  "tags": {
    "amenity": "bicycle_parking",
    "bicycle_parking": "stands",
    "capacity": "10",
    "covered": "no",
    "mapillary": "595393821420841",
    "operator": "Ayuntamiento de Zaragoza",
    "operator:wikidata": "Q8210811"
  }
},
{
  "type": "node",
  "id": 5299275165,
  "lat": 41.6598492,
  "lon": -0.9149579,
  "tags": {
    "amenity": "bicycle_parking",
    "bicycle_parking": "stands",
    "mapillary": "481768436504963"
  }
},
{
  "type": "node",
  "id": 5336652452,
  "lat": 41.6354852,
  "lon": -0.8900935,
  "tags": {
    "amenity": "bicycle_parking",
    "bicycle_parking": "stands",
    "capacity": "12",
    "covered": "no",
    "mapillary": "845364672719565",
    "survey:date": "2019-09-06"
  }
},
{
  "type": "node",
  "id": 5336652456,
  "lat": 41.6356535,
  "lon": -0.8899155,
  "tags": {
    "amenity": "bicycle_parking",
    "bicycle_parking": "stands",
    "capacity": "10",
    "covered": "no",
    "mapillary": "856594368270891",
    "survey:date": "2019-09-06"
  }
},
{
  "type": "node",
  "id": 5336652457,
  "lat": 41.6359358,
  "lon": -0.8897001,
  "tags": {
    "amenity": "bicycle_parking",
    "bicycle_parking": "stands",
    "capacity": "20",
    "covered": "no",
    "mapillary": "312717056951314"
  }
},
{
  "type": "node",
  "id": 5336652458,
  "lat": 41.6352585,
  "lon": -0.8862657,
  "tags": {
    "amenity": "bicycle_parking",
    "bicycle_parking": "stands",
    "capacity": "16",
    "covered": "no",
    "mapillary": "1556024891268445",
    "operator": "Ayuntamiento de Zaragoza",
    "operator:wikidata": "Q8210811"
  }
},
{
  "type": "node",
  "id": 5338862562,
  "lat": 41.6255049,
  "lon": -0.9311182,
  "tags": {
    "amenity": "bicycle_parking",
    "bicycle_parking": "stands",
    "capacity": "10",
    "covered": "no",
    "mapillary": "310865727278892"
  }
},
{
  "type": "node",
  "id": 5341233855,
  "lat": 41.6590092,
  "lon": -0.8742071,
  "tags": {
    "amenity": "bicycle_parking",
    "bicycle_parking": "stands",
    "capacity": "8",
    "mapillary": "943214936433724",
    "operator": "Ayuntamiento de Zaragoza",
    "operator:wikidata": "Q8210811"
  }
},
{
  "type": "node",
  "id": 5341233871,
  "lat": 41.6711845,
  "lon": -0.8910589,
  "tags": {
    "amenity": "bicycle_parking",
    "bicycle_parking": "stands",
    "capacity": "10",
    "covered": "no",
    "mapillary": "389338188858566",
    "operator": "Ayuntamiento de Zaragoza",
    "operator:wikidata": "Q8210811"
  }
},
{
  "type": "node",
  "id": 5341259222,
  "lat": 41.6713505,
  "lon": -0.8985223,
  "tags": {
    "amenity": "bicycle_parking",
    "bicycle_parking": "stands",
    "capacity": "24",
    "covered": "no",
    "mapillary": "137260475080189"
  }
},
{
  "type": "node",
  "id": 5356954928,
  "lat": 41.6447963,
  "lon": -0.8840616,
  "tags": {
    "amenity": "bicycle_parking",
    "bicycle_parking": "stands",
    "capacity": "10",
    "covered": "no",
    "mapillary": "3623581421081670",
    "operator": "Ayuntamiento de Zaragoza",
    "operator:wikidata": "Q8210811"
  }
},
{
  "type": "node",
  "id": 5356954930,
  "lat": 41.6429480,
  "lon": -0.8880115,
  "tags": {
    "amenity": "bicycle_parking",
    "bicycle_parking": "stands",
    "capacity": "2",
    "covered": "no",
    "mapillary": "3360588290709882"
  }
},
{
  "type": "node",
  "id": 5356954931,
  "lat": 41.6428921,
  "lon": -0.8878053,
  "tags": {
    "amenity": "bicycle_parking",
    "bicycle_parking": "stands",
    "capacity": "20",
    "covered": "no",
    "mapillary": "461096198440696"
  }
},
{
  "type": "node",
  "id": 5356954932,
  "lat": 41.6439705,
  "lon": -0.8829102,
  "tags": {
    "amenity": "bicycle_parking",
    "bicycle_parking": "stands",
    "capacity": "10",
    "covered": "no",
    "mapillary": "299478298379307"
  }
},
{
  "type": "node",
  "id": 5356954933,
  "lat": 41.6436465,
  "lon": -0.8795942,
  "tags": {
    "amenity": "bicycle_parking",
    "bicycle_parking": "stands",
    "capacity": "14",
    "covered": "no",
    "mapillary": "2909223072658461"
  }
},
{
  "type": "node",
  "id": 5359315375,
  "lat": 41.6578441,
  "lon": -0.8929532,
  "tags": {
    "amenity": "bicycle_parking",
    "bicycle_parking": "stands",
    "capacity": "12",
    "covered": "no",
    "mapillary": "168551391855388",
    "survey:date": "2019-05-22"
  }
},
{
  "type": "node",
  "id": 5361724367,
  "lat": 41.6776445,
  "lon": -0.8707053,
  "tags": {
    "amenity": "bicycle_parking",
    "bicycle_parking": "stands",
    "capacity": "10",
    "mapillary": "1737276113111698"
  }
},
{
  "type": "node",
  "id": 5363027730,
  "lat": 41.6865869,
  "lon": -0.8742539,
  "tags": {
    "amenity": "bicycle_parking",
    "bicycle_parking": "stands",
    "capacity": "4",
    "mapillary": "461229021626107"
  }
},
{
  "type": "node",
  "id": 5363654891,
  "lat": 41.6878613,
  "lon": -0.8730351,
  "tags": {
    "access": "private",
    "amenity": "bicycle_parking",
    "bicycle_parking": "stands",
    "capacity": "50",
    "covered": "no",
    "fee": "no",
    "mapillary": "207700624229068"
  }
},
{
  "type": "node",
  "id": 5363654892,
  "lat": 41.6879282,
  "lon": -0.8735564,
  "tags": {
    "access": "private",
    "amenity": "bicycle_parking",
    "bicycle_parking": "stands",
    "capacity": "28",
    "mapillary": "279330667173830"
  }
},
{
  "type": "node",
  "id": 5364223788,
  "lat": 41.6890247,
  "lon": -0.8735141,
  "tags": {
    "access": "private",
    "amenity": "bicycle_parking",
    "bicycle_parking": "stands",
    "capacity": "10",
    "mapillary": "2837385826525711"
  }
},
{
  "type": "node",
  "id": 5364223789,
  "lat": 41.6887456,
  "lon": -0.8733707,
  "tags": {
    "access": "private",
    "amenity": "bicycle_parking",
    "bicycle_parking": "stands",
    "capacity": "10",
    "mapillary": "484487446125875"
  }
},
{
  "type": "node",
  "id": 5368972312,
  "lat": 41.6891785,
  "lon": -0.8734222,
  "tags": {
    "access": "private",
    "amenity": "bicycle_parking",
    "bicycle_parking": "stands",
    "capacity": "34",
    "mapillary": "924870315019309"
  }
},
{
  "type": "node",
  "id": 5368972313,
  "lat": 41.6868448,
  "lon": -0.8746114,
  "tags": {
    "amenity": "bicycle_parking",
    "bicycle_parking": "stands",
    "capacity": "6",
    "mapillary": "376705673618760"
  }
},
{
  "type": "node",
  "id": 5370049482,
  "lat": 41.6807544,
  "lon": -0.8711643,
  "tags": {
    "amenity": "bicycle_parking",
    "bicycle_parking": "stands",
    "capacity": "10",
    "mapillary": "470461334025093"
  }
},
{
  "type": "node",
  "id": 5370591582,
  "lat": 41.6084074,
  "lon": -0.8899662,
  "tags": {
    "amenity": "bicycle_parking",
    "bicycle_parking": "stands",
    "capacity": "60",
    "mapillary": "481979446559868"
  }
},
{
  "type": "node",
  "id": 5405212763,
  "lat": 41.6612122,
  "lon": -0.8734984,
  "tags": {
    "amenity": "bicycle_parking",
    "bicycle_parking": "stands",
    "capacity": "6",
    "mapillary": "455702175476217"
  }
},
{
  "type": "node",
  "id": 5405212765,
  "lat": 41.6609536,
  "lon": -0.8735980,
  "tags": {
    "amenity": "bicycle_parking",
    "bicycle_parking": "stands",
    "capacity": "6",
    "mapillary": "972810643529599"
  }
},
{
  "type": "node",
  "id": 5406190543,
  "lat": 41.6678520,
  "lon": -0.8266153,
  "tags": {
    "amenity": "bicycle_parking",
    "bicycle_parking": "stands",
    "capacity": "10",
    "covered": "no",
    "mapillary": "392231331961710"
  }
},
{
  "type": "node",
  "id": 5410244764,
  "lat": 41.6331771,
  "lon": -0.8867195,
  "tags": {
    "amenity": "bicycle_parking",
    "bicycle_parking": "stands",
    "capacity": "8",
    "covered": "no",
    "mapillary": "518649686177935",
    "survey:date": "2018-09-08"
  }
},
{
  "type": "node",
  "id": 5419888129,
  "lat": 41.6305985,
  "lon": -0.9060236,
  "tags": {
    "amenity": "bicycle_parking",
    "bicycle_parking": "stands",
    "capacity": "6",
    "covered": "no",
    "fixme": "get better mapillary photo",
    "mapillary": "370476434369680"
  }
},
{
  "type": "node",
  "id": 5448376057,
  "lat": 41.6369752,
  "lon": -0.9038193,
  "tags": {
    "amenity": "bicycle_parking",
    "bicycle_parking": "stands",
    "capacity": "20",
    "covered": "no",
    "mapillary": "753616081993869",
    "operator": "Ayuntamiento de Zaragoza",
    "operator:wikidata": "Q8210811"
  }
},
{
  "type": "node",
  "id": 5459289762,
  "lat": 41.6525541,
  "lon": -0.9025160,
  "tags": {
    "amenity": "bicycle_parking",
    "bicycle_parking": "stands",
    "capacity": "2",
    "covered": "no",
    "mapillary": "466202084659696",
    "operator": "Ayuntamiento de Zaragoza",
    "operator:wikidata": "Q8210811"
  }
},
{
  "type": "node",
  "id": 5461945078,
  "lat": 41.6570714,
  "lon": -0.8939006,
  "tags": {
    "amenity": "bicycle_parking",
    "bicycle_parking": "stands",
    "capacity": "2",
    "covered": "no",
    "mapillary": "161380392576927",
    "operator": "Ayuntamiento de Zaragoza",
    "operator:wikidata": "Q8210811"
  }
},
{
  "type": "node",
  "id": 5486212619,
  "lat": 41.6519296,
  "lon": -0.8938241,
  "tags": {
    "amenity": "bicycle_parking",
    "bicycle_parking": "stands",
    "capacity": "32",
    "check_date:capacity": "2022-07-18",
    "covered": "no",
    "mapillary": "339883684158853"
  }
},
{
  "type": "node",
  "id": 5499159162,
  "lat": 41.6443936,
  "lon": -0.8675979,
  "tags": {
    "amenity": "bicycle_parking",
    "bicycle_parking": "stands",
    "capacity": "10",
    "mapillary": "318426649880487",
    "operator": "Ayuntamiento de Zaragoza"
  }
},
{
  "type": "node",
  "id": 5499898523,
  "lat": 41.6445836,
  "lon": -0.8700040,
  "tags": {
    "amenity": "bicycle_parking",
    "bicycle_parking": "stands",
    "capacity": "10",
    "covered": "no",
    "mapillary": "989344461895908"
  }
},
{
  "type": "node",
  "id": 5499898524,
  "lat": 41.6449998,
  "lon": -0.8686001,
  "tags": {
    "amenity": "bicycle_parking",
    "bicycle_parking": "stands",
    "capacity": "14",
    "mapillary": "1374812349564336",
    "operator": "Ayuntamiento de Zaragoza"
  }
},
{
  "type": "node",
  "id": 5555268730,
  "lat": 41.6426943,
  "lon": -0.9091215,
  "tags": {
    "amenity": "bicycle_parking",
    "bicycle_parking": "stands",
    "capacity": "8",
    "mapillary": "569504144022607"
  }
},
{
  "type": "node",
  "id": 5577203935,
  "lat": 41.6255388,
  "lon": -0.8777352,
  "tags": {
    "amenity": "bicycle_parking",
    "bicycle_parking": "stands",
    "capacity": "12",
    "covered": "no",
    "mapillary": "522651705770989",
    "operator": "Ayuntamiento de Zaragoza",
    "operator:wikidata": "Q8210811"
  }
},
{
  "type": "node",
  "id": 5577203936,
  "lat": 41.6248638,
  "lon": -0.8769036,
  "tags": {
    "amenity": "bicycle_parking",
    "bicycle_parking": "stands",
    "capacity": "12",
    "mapillary": "307091477468906",
    "operator": "Ayuntamiento de Zaragoza",
    "operator:wikidata": "Q8210811"
  }
},
{
  "type": "node",
  "id": 5611857733,
  "lat": 41.6247598,
  "lon": -0.9367814,
  "tags": {
    "access": "yes",
    "amenity": "bicycle_parking",
    "bicycle_parking": "shed",
    "capacity": "20",
    "covered": "yes",
    "fee": "yes",
    "mapillary": "465209981372058",
    "name": "BiciSur",
    "network": "Bizia",
    "note": "P+R bici->tranvía",
    "opening_hours": "24/7",
    "operator": "Consorcio de Transportes del Área de Zaragoza",
    "park_ride": "yes"
  }
},
{
  "type": "node",
  "id": 5633061469,
  "lat": 41.6525336,
  "lon": -0.9038661,
  "tags": {
    "amenity": "bicycle_parking",
    "bicycle_parking": "stands",
    "capacity": "10",
    "covered": "no",
    "mapillary": "371360780874380"
  }
},
{
  "type": "node",
  "id": 5634821196,
  "lat": 41.6430893,
  "lon": -0.9054174,
  "tags": {
    "amenity": "bicycle_parking",
    "bicycle_parking": "stands",
    "mapillary": "372306440774141"
  }
},
{
  "type": "node",
  "id": 5634821197,
  "lat": 41.6420880,
  "lon": -0.9037004,
  "tags": {
    "amenity": "bicycle_parking",
    "bicycle_parking": "stands",
    "mapillary": "297434221887408"
  }
},
{
  "type": "node",
  "id": 5634821198,
  "lat": 41.6416496,
  "lon": -0.9053828,
  "tags": {
    "amenity": "bicycle_parking",
    "bicycle_parking": "wall_loops",
    "mapillary": "478579013399624",
    "survey:date": "2018-05-15"
  }
},
{
  "type": "node",
  "id": 5652066694,
  "lat": 41.6396909,
  "lon": -0.9176954,
  "tags": {
    "amenity": "bicycle_parking",
    "bicycle_parking": "stands",
    "capacity": "10",
    "mapillary": "466576337993769"
  }
},
{
  "type": "node",
  "id": 5657322192,
  "lat": 41.6892491,
  "lon": -0.8936106,
  "tags": {
    "amenity": "bicycle_parking",
    "bicycle_parking": "stands",
    "capacity": "8",
    "mapillary": "163951428989394"
  }
},
{
  "type": "node",
  "id": 5695245773,
  "lat": 41.6411956,
  "lon": -0.8923553,
  "tags": {
    "amenity": "bicycle_parking",
    "bicycle_parking": "stands",
    "capacity": "10",
    "covered": "no",
    "mapillary": "742737599746732",
    "operator": "Ayuntamiento de Zaragoza",
    "operator:wikidata": "Q8210811"
  }
},
{
  "type": "node",
  "id": 5714791408,
  "lat": 41.6592264,
  "lon": -0.9071448,
  "tags": {
    "amenity": "bicycle_parking",
    "bicycle_parking": "stands",
    "capacity": "14",
    "covered": "yes",
    "mapillary": "514294919574623"
  }
},
{
  "type": "node",
  "id": 5714993703,
  "lat": 41.6591681,
  "lon": -0.9072124,
  "tags": {
    "amenity": "bicycle_parking",
    "bicycle_parking": "stands",
    "capacity": "10",
    "covered": "yes",
    "mapillary": "189960636299534"
  }
},
{
  "type": "node",
  "id": 5718018590,
  "lat": 41.6498810,
  "lon": -0.8987037,
  "tags": {
    "amenity": "bicycle_parking",
    "bicycle_parking": "stands",
    "capacity": "2",
    "mapillary": "265486681981673"
  }
},
{
  "type": "node",
  "id": 5719828774,
  "lat": 41.6383156,
  "lon": -0.9019275,
  "tags": {
    "amenity": "bicycle_parking",
    "bicycle_parking": "stands",
    "capacity": "10",
    "mapillary": "1202216263542341"
  }
},
{
  "type": "node",
  "id": 5730491263,
  "lat": 41.6495466,
  "lon": -0.9169000,
  "tags": {
    "amenity": "bicycle_parking",
    "bicycle_parking": "stands",
    "capacity": "10",
    "mapillary": "1451529258572727"
  }
},
{
  "type": "node",
  "id": 5745760056,
  "lat": 41.6455809,
  "lon": -0.9154803,
  "tags": {
    "amenity": "bicycle_parking",
    "bicycle_parking": "stands",
    "capacity": "14",
    "mapillary": "275015470960923"
  }
},
{
  "type": "node",
  "id": 5745760057,
  "lat": 41.6455693,
  "lon": -0.9152290,
  "tags": {
    "amenity": "bicycle_parking",
    "bicycle_parking": "stands",
    "capacity": "6",
    "mapillary": "476927076849495"
  }
},
{
  "type": "node",
  "id": 5745760061,
  "lat": 41.6477802,
  "lon": -0.9133307,
  "tags": {
    "amenity": "bicycle_parking",
    "bicycle_parking": "stands",
    "capacity": "14",
    "mapillary": "212152747137468"
  }
},
{
  "type": "node",
  "id": 5764044273,
  "lat": 41.6594305,
  "lon": -0.9109698,
  "tags": {
    "amenity": "bicycle_parking",
    "bicycle_parking": "stands",
    "capacity": "20",
    "mapillary": "3623842814507824"
  }
},
{
  "type": "node",
  "id": 5768623629,
  "lat": 41.6334761,
  "lon": -0.8884660,
  "tags": {
    "amenity": "bicycle_parking",
    "bicycle_parking": "stands",
    "capacity": "4",
    "covered": "no",
    "mapillary": "479518746460669",
    "operator": "Ayuntamiento de Zaragoza",
    "operator:wikidata": "Q8210811",
    "survey:date": "2018-09-08"
  }
},
{
  "type": "node",
  "id": 5774946723,
  "lat": 41.6671937,
  "lon": -0.8534002,
  "tags": {
    "amenity": "bicycle_parking",
    "bicycle_parking": "stands",
    "capacity": "14",
    "covered": "no",
    "mapillary": "921635025322608"
  }
},
{
  "type": "node",
  "id": 5776764517,
  "lat": 41.6520570,
  "lon": -0.9005456,
  "tags": {
    "amenity": "bicycle_parking",
    "bicycle_parking": "stands",
    "covered": "no",
    "mapillary": "141079894692744",
    "survey:date": "2018-07-21"
  }
},
{
  "type": "node",
  "id": 5791950239,
  "lat": 41.6409674,
  "lon": -0.9008822,
  "tags": {
    "amenity": "bicycle_parking",
    "bicycle_parking": "stands",
    "capacity": "12",
    "covered": "no",
    "mapillary": "843694009834881",
    "survey:date": "2019-07-26"
  }
},
{
  "type": "node",
  "id": 5794343698,
  "lat": 41.6645081,
  "lon": -0.8585253,
  "tags": {
    "amenity": "bicycle_parking",
    "bicycle_parking": "stands",
    "capacity": "10",
    "mapillary": "167906445134188"
  }
},
{
  "type": "node",
  "id": 5796925245,
  "lat": 41.6352683,
  "lon": -0.9470603,
  "tags": {
    "amenity": "bicycle_parking",
    "bicycle_parking": "stands",
    "capacity": "20",
    "mapillary": "337378424475300"
  }
},
{
  "type": "node",
  "id": 5796929701,
  "lat": 41.6528428,
  "lon": -0.8578889,
  "tags": {
    "amenity": "bicycle_parking",
    "bicycle_parking": "stands",
    "covered": "no",
    "mapillary": "262225402295566",
    "survey:date": "2018-07-30"
  }
},
{
  "type": "node",
  "id": 5806485446,
  "lat": 41.6837930,
  "lon": -0.8904707,
  "tags": {
    "amenity": "bicycle_parking",
    "bicycle_parking": "stands",
    "capacity": "8",
    "covered": "no",
    "mapillary": "532353504422721"
  }
},
{
  "type": "node",
  "id": 5829802949,
  "lat": 41.6221933,
  "lon": -0.9037103,
  "tags": {
    "amenity": "bicycle_parking",
    "bicycle_parking": "wall_loops",
    "covered": "no",
    "mapillary": "937293960358624",
    "survey:date": "2018-08-12"
  }
},
{
  "type": "node",
  "id": 5896466727,
  "lat": 41.6230592,
  "lon": -0.9496191,
  "tags": {
    "access": "yes",
    "amenity": "bicycle_parking",
    "bicycle_parking": "stands",
    "capacity": "10",
    "covered": "no",
    "mapillary": "949480785841256"
  }
},
{
  "type": "node",
  "id": 5931135370,
  "lat": 41.6248810,
  "lon": -0.9360281,
  "tags": {
    "amenity": "bicycle_parking",
    "bicycle_parking": "stands",
    "capacity": "8",
    "covered": "no",
    "mapillary": "221382712653224"
  }
},
{
  "type": "node",
  "id": 6271218971,
  "lat": 41.6688417,
  "lon": -0.8387331,
  "tags": {
    "amenity": "bicycle_parking",
    "bicycle_parking": "stands",
    "capacity": "20",
    "mapillary": "301567091417014"
  }
},
{
  "type": "node",
  "id": 6271219185,
  "lat": 41.6697938,
  "lon": -0.8386821,
  "tags": {
    "amenity": "bicycle_parking",
    "bicycle_parking": "stands",
    "capacity": "10",
    "covered": "no",
    "mapillary": "884798462098038"
  }
},
{
  "type": "node",
  "id": 7321376302,
  "lat": 41.6443074,
  "lon": -0.9003916,
  "tags": {
    "amenity": "bicycle_parking",
    "covered": "no",
    "mapillary": "523782045291413",
    "survey:date": "2019-07-16"
  }
},
{
  "type": "node",
  "id": 7663962577,
  "lat": 41.6424170,
  "lon": -0.9018177,
  "tags": {
    "amenity": "bicycle_parking",
    "bicycle_parking": "stands",
    "capacity": "12",
    "mapillary": "181151963886069"
  }
},
{
  "type": "node",
  "id": 9077586726,
  "lat": 41.6436765,
  "lon": -0.8797186,
  "tags": {
    "amenity": "bicycle_parking",
    "bicycle_parking": "stands",
    "capacity": "10",
    "covered": "no",
    "mapillary": "2909223072658461"
  }
}

  ]
}
