{
  "version": 0.6,
  "generator": "Overpass API 0.7.62.1 084b4234",
  "osm3s": {
    "timestamp_osm_base": "2024-05-15T14:12:42Z",
    "copyright": "The data included in this document is from www.openstreetmap.org. The data is made available under ODbL."
  },
  "elements": [

{
  "type": "node",
  "id": 267822146,
  "lat": 41.6670075,
  "lon": -0.8945710,
  "tags": {
    "amenity": "bicycle_rental",
    "bicycle_rental": "docking_station",
    "brand": "BiZi",
    "brand:wikidata": "Q953933",
    "capacity": "21",
    "mapillary": "149809013762695",
    "name": "Pasarela del Voluntariado - Avda. Ranillas",
    "network": "BiZi",
    "network:wikidata": "Q953933",
    "operator": "Clear Channel",
    "ref": "3",
    "source": "survey"
  }
},
{
  "type": "node",
  "id": 410450302,
  "lat": 41.6518935,
  "lon": -0.8804651,
  "tags": {
    "amenity": "bicycle_rental",
    "bicycle_rental": "docking_station",
    "brand": "BiZi",
    "brand:wikidata": "Q953933",
    "capacity": "27",
    "mapillary": "4149048158485817",
    "name": "Plaza de España",
    "network": "BiZi",
    "network:wikidata": "Q953933",
    "operator": "Clear Channel",
    "ref": "16"
  }
},
{
  "type": "node",
  "id": 410451461,
  "lat": 41.6525816,
  "lon": -0.8771190,
  "tags": {
    "amenity": "bicycle_rental",
    "bicycle_rental": "docking_station",
    "brand": "BiZi",
    "brand:wikidata": "Q953933",
    "capacity": "21",
    "mapillary": "3735268869928452",
    "name": "Plaza San Pedro Nolasco",
    "network": "BiZi",
    "network:wikidata": "Q953933",
    "operator": "Clear Channel",
    "ref": "24",
    "source": "survey"
  }
},
{
  "type": "node",
  "id": 410453503,
  "lat": 41.6397454,
  "lon": -0.8809862,
  "tags": {
    "amenity": "bicycle_rental",
    "bicycle_rental": "docking_station",
    "brand": "BiZi",
    "brand:wikidata": "Q953933",
    "capacity": "21",
    "mapillary": "500539674412020",
    "name": "Tenor Fleta/Uncastillo",
    "network": "BiZi",
    "network:wikidata": "Q953933",
    "operator": "Clear Channel",
    "ref": "42"
  }
},
{
  "type": "node",
  "id": 410453505,
  "lat": 41.6489641,
  "lon": -0.8755964,
  "tags": {
    "amenity": "bicycle_rental",
    "bicycle_rental": "docking_station",
    "brand": "BiZi",
    "brand:wikidata": "Q953933",
    "capacity": "21",
    "mapillary": "500015794372399",
    "name": "C/ Asalto - C/ Miguel Servet",
    "network": "BiZi",
    "network:wikidata": "Q953933",
    "operator": "Clear Channel",
    "ref": "19"
  }
},
{
  "type": "node",
  "id": 419267076,
  "lat": 41.6401330,
  "lon": -0.8864710,
  "tags": {
    "amenity": "bicycle_rental",
    "bicycle_rental": "docking_station",
    "brand": "BiZi",
    "brand:wikidata": "Q953933",
    "capacity": "21",
    "mapillary": "4099550343424728",
    "name": "Pso. Sagasta - Cno. de las Torres",
    "network": "BiZi",
    "network:wikidata": "Q953933",
    "operator": "Clear Channel",
    "ref": "44"
  }
},
{
  "type": "node",
  "id": 419267077,
  "lat": 41.6414496,
  "lon": -0.8950102,
  "tags": {
    "amenity": "bicycle_rental",
    "bicycle_rental": "docking_station",
    "brand": "BiZi",
    "brand:wikidata": "Q953933",
    "capacity": "21",
    "mapillary": "1503558886519329",
    "name": "Plaza de San Francisco - Universidad",
    "network": "BiZi",
    "network:wikidata": "Q953933",
    "operator": "Clear Channel",
    "ref": "47"
  }
},
{
  "type": "node",
  "id": 419267078,
  "lat": 41.6421359,
  "lon": -0.8750977,
  "tags": {
    "amenity": "bicycle_rental",
    "bicycle_rental": "docking_station",
    "brand": "BiZi",
    "brand:wikidata": "Q953933",
    "capacity": "21",
    "check_date": "2023-01-05",
    "mapillary": "208986747433207",
    "name": "Av. Cesáreo Alierta - C/ Félix Burriel",
    "network": "BiZi",
    "network:wikidata": "Q953933",
    "operator": "Clear Channel",
    "ref": "40",
    "source": "survey"
  }
},
{
  "type": "node",
  "id": 527840306,
  "lat": 41.6522933,
  "lon": -0.8958424,
  "tags": {
    "amenity": "bicycle_rental",
    "bicycle_rental": "docking_station",
    "brand": "BiZi",
    "brand:wikidata": "Q953933",
    "capacity": "21",
    "mapillary": "497739714750170",
    "name": "Estación de Cercanías El Portillo",
    "network": "BiZi",
    "network:wikidata": "Q953933",
    "operator": "Clear Channel",
    "ref": "15"
  }
},
{
  "type": "node",
  "id": 527858677,
  "lat": 41.6498019,
  "lon": -0.8986659,
  "tags": {
    "amenity": "bicycle_rental",
    "bicycle_rental": "docking_station",
    "brand": "BiZi",
    "brand:wikidata": "Q953933",
    "capacity": "21",
    "mapillary": "777422369877735",
    "name": "Plaza Roma",
    "network": "BiZi",
    "network:wikidata": "Q953933",
    "operator": "Clear Channel",
    "ref": "51"
  }
},
{
  "type": "node",
  "id": 527860652,
  "lat": 41.6556781,
  "lon": -0.8966471,
  "tags": {
    "amenity": "bicycle_rental",
    "bicycle_rental": "docking_station",
    "brand": "BiZi",
    "brand:wikidata": "Q953933",
    "capacity": "21",
    "mapillary": "504162157436547",
    "name": "Avda. Madrid - Aljafería",
    "network": "BiZi",
    "network:wikidata": "Q953933",
    "operator": "Clear Channel",
    "ref": "29"
  }
},
{
  "type": "node",
  "id": 583006220,
  "lat": 41.6444323,
  "lon": -0.8925875,
  "tags": {
    "amenity": "bicycle_rental",
    "bicycle_rental": "docking_station",
    "brand": "BiZi",
    "brand:wikidata": "Q953933",
    "capacity": "21",
    "mapillary": "808429213402802",
    "name": "Avda. Goya - C/ Baltasar Gracián",
    "network": "BiZi",
    "network:wikidata": "Q953933",
    "operator": "Clear Channel",
    "ref": "46"
  }
},
{
  "type": "node",
  "id": 597842833,
  "lat": 41.6344124,
  "lon": -0.9090829,
  "tags": {
    "amenity": "bicycle_rental",
    "bicycle_rental": "docking_station",
    "brand": "BiZi",
    "brand:wikidata": "Q953933",
    "capacity": "21",
    "mapillary": "1573839872821296",
    "name": "C/ Condes de Aragón - Vía Hispanidad",
    "network": "BiZi",
    "network:wikidata": "Q953933",
    "operator": "Clear Channel",
    "ref": "111"
  }
},
{
  "type": "node",
  "id": 597842836,
  "lat": 41.6413730,
  "lon": -0.9104273,
  "tags": {
    "amenity": "bicycle_rental",
    "bicycle_rental": "docking_station",
    "brand": "BiZi",
    "brand:wikidata": "Q953933",
    "capacity": "21",
    "mapillary": "2909554692650819",
    "name": "Avda. Juan Pablo II - Avda. Gómez Laguna",
    "network": "BiZi",
    "network:wikidata": "Q953933",
    "operator": "Clear Channel",
    "ref": "118"
  }
},
{
  "type": "node",
  "id": 598624128,
  "lat": 41.6509281,
  "lon": -0.8846840,
  "tags": {
    "amenity": "bicycle_rental",
    "bicycle_rental": "docking_station",
    "brand": "BiZi",
    "brand:wikidata": "Q953933",
    "capacity": "21",
    "mapillary": "257932249351203",
    "name": "Plaza del Carmen",
    "network": "BiZi",
    "network:wikidata": "Q953933",
    "operator": "Clear Channel",
    "ref": "100"
  }
},
{
  "type": "node",
  "id": 623901155,
  "lat": 41.6423877,
  "lon": -0.8823363,
  "tags": {
    "amenity": "bicycle_rental",
    "bicycle_rental": "docking_station",
    "brand": "BiZi",
    "brand:wikidata": "Q953933",
    "capacity": "21",
    "mapillary": "958888154861129",
    "name": "Plaza Schweitzer",
    "network": "BiZi",
    "network:wikidata": "Q953933",
    "operator": "Clear Channel",
    "ref": "41"
  }
},
{
  "type": "node",
  "id": 704415575,
  "lat": 41.6704192,
  "lon": -0.9051820,
  "tags": {
    "amenity": "bicycle_rental",
    "bicycle_rental": "docking_station",
    "brand": "BiZi",
    "brand:wikidata": "Q953933",
    "capacity": "24",
    "mapillary": "959179691494831",
    "name": "Torre del Agua",
    "network": "BiZi",
    "network:wikidata": "Q953933",
    "operator": "Clear Channel",
    "ref": "1"
  }
},
{
  "type": "node",
  "id": 704415616,
  "lat": 41.6723409,
  "lon": -0.8981844,
  "tags": {
    "amenity": "bicycle_rental",
    "bicycle_rental": "docking_station",
    "brand": "BiZi",
    "brand:wikidata": "Q953933",
    "capacity": "21",
    "check_date": "2023-03-30",
    "mapillary": "2532567733712110",
    "name": "Avda. Ranillas - Avda. Pablo Ruiz Picasso",
    "network": "BiZi",
    "network:wikidata": "Q953933",
    "operator": "Clear Channel",
    "ref": "2"
  }
},
{
  "type": "node",
  "id": 706593214,
  "lat": 41.6592813,
  "lon": -0.8914309,
  "tags": {
    "amenity": "bicycle_rental",
    "bicycle_rental": "docking_station",
    "brand": "BiZi",
    "brand:wikidata": "Q953933",
    "capacity": "21",
    "mapillary": "266512665174200",
    "name": "Plaza de Europa",
    "network": "BiZi",
    "network:wikidata": "Q953933",
    "operator": "Clear Channel",
    "ref": "11",
    "source": "survey"
  }
},
{
  "type": "node",
  "id": 706741979,
  "lat": 41.6780757,
  "lon": -0.8909459,
  "tags": {
    "amenity": "bicycle_rental",
    "bicycle_rental": "docking_station",
    "brand": "BiZi",
    "brand:wikidata": "Q953933",
    "capacity": "21",
    "mapillary": "3712030488906356",
    "name": "Margarita Xirgu",
    "network": "BiZi",
    "network:wikidata": "Q953933",
    "operator": "Clear Channel",
    "ref": "73"
  }
},
{
  "type": "node",
  "id": 772973316,
  "lat": 41.6621348,
  "lon": -0.8883504,
  "tags": {
    "amenity": "bicycle_rental",
    "bicycle_rental": "docking_station",
    "brand": "BiZi",
    "brand:wikidata": "Q953933",
    "capacity": "21",
    "mapillary": "847482612642715",
    "name": "Avda. Ranillas - Puente de La Almozara",
    "name:etymology:wikidata": "Q9018307",
    "network": "BiZi",
    "network:wikidata": "Q953933",
    "operator": "Clear Channel",
    "ref": "4",
    "wikidata": "Q9064460"
  }
},
{
  "type": "node",
  "id": 838679899,
  "lat": 41.6429272,
  "lon": -0.8879277,
  "tags": {
    "amenity": "bicycle_rental",
    "bicycle_rental": "docking_station",
    "brand": "BiZi",
    "brand:wikidata": "Q953933",
    "capacity": "21",
    "mapillary": "3360588290709882",
    "name": "Avda. Goya - C/ Arzobispo Domenech",
    "network": "BiZi",
    "network:wikidata": "Q953933",
    "operator": "Clear Channel",
    "ref": "43"
  }
},
{
  "type": "node",
  "id": 970523763,
  "lat": 41.6602645,
  "lon": -0.8807718,
  "tags": {
    "amenity": "bicycle_rental",
    "bicycle_rental": "docking_station",
    "brand": "BiZi",
    "brand:wikidata": "Q953933",
    "capacity": "21",
    "mapillary": "523724785457978",
    "name": "Pº de la Ribera - Puente de Santiago",
    "network": "BiZi",
    "network:wikidata": "Q953933",
    "operator": "Clear Channel",
    "ref": "5"
  }
},
{
  "type": "node",
  "id": 970523781,
  "lat": 41.6642209,
  "lon": -0.8836166,
  "tags": {
    "amenity": "bicycle_rental",
    "bicycle_rental": "docking_station",
    "brand": "BiZi",
    "brand:wikidata": "Q953933",
    "capacity": "21",
    "mapillary": "288002556369276",
    "name": "Avda. Mª Zambrano - C/ Padre Marcellán Mayayo",
    "network": "BiZi",
    "network:wikidata": "Q953933",
    "operator": "Clear Channel",
    "ref": "94"
  }
},
{
  "type": "node",
  "id": 970523795,
  "lat": 41.6750889,
  "lon": -0.8890853,
  "tags": {
    "amenity": "bicycle_rental",
    "bicycle_rental": "docking_station",
    "brand": "BiZi",
    "brand:wikidata": "Q953933",
    "capacity": "21",
    "mapillary": "958850064887342",
    "name": "Avda. Mª Zambrano - C/ Julio García Condoy",
    "network": "BiZi",
    "network:wikidata": "Q953933",
    "operator": "Clear Channel",
    "ref": "68",
    "source": "survey"
  }
},
{
  "type": "node",
  "id": 1267575511,
  "lat": 41.6759674,
  "lon": -0.8934344,
  "tags": {
    "amenity": "bicycle_rental",
    "bicycle_rental": "docking_station",
    "brand": "BiZi",
    "brand:wikidata": "Q953933",
    "capacity": "21",
    "check_date": "2023-03-30",
    "mapillary": "472505670667159",
    "name": "C/ Luis Legaz Lacambra - C/ Octavio Paz",
    "network": "BiZi",
    "network:wikidata": "Q953933",
    "operator": "Clear Channel",
    "ref": "71"
  }
},
{
  "type": "node",
  "id": 1273377556,
  "lat": 41.6570934,
  "lon": -0.8937350,
  "tags": {
    "amenity": "bicycle_rental",
    "bicycle_rental": "docking_station",
    "brand": "BiZi",
    "brand:wikidata": "Q953933",
    "capacity": "21",
    "mapillary": "522803872186105",
    "name": "Pº Mª Agustín - C/ de la Aljafería",
    "network": "BiZi",
    "network:wikidata": "Q953933",
    "operator": "Clear Channel",
    "ref": "87"
  }
},
{
  "type": "node",
  "id": 1273425502,
  "lat": 41.6588331,
  "lon": -0.8742536,
  "tags": {
    "amenity": "bicycle_rental",
    "bicycle_rental": "docking_station",
    "brand": "BiZi",
    "brand:wikidata": "Q953933",
    "capacity": "21",
    "mapillary": "2912211562371355",
    "name": "Pº de la Ribera - C/ Sobrarbe",
    "network": "BiZi",
    "network:wikidata": "Q953933",
    "operator": "Clear Channel",
    "ref": "57"
  }
},
{
  "type": "node",
  "id": 1273425509,
  "lat": 41.6565131,
  "lon": -0.8697034,
  "tags": {
    "amenity": "bicycle_rental",
    "bicycle_rental": "docking_station",
    "brand": "BiZi",
    "brand:wikidata": "Q953933",
    "capacity": "21",
    "mapillary": "1258899071192730",
    "name": "Pº de la Ribera - Puente del Pilar",
    "network": "BiZi",
    "network:wikidata": "Q953933",
    "operator": "Clear Channel",
    "ref": "6"
  }
},
{
  "type": "node",
  "id": 1273425514,
  "lat": 41.6621145,
  "lon": -0.9040364,
  "tags": {
    "amenity": "bicycle_rental",
    "bicycle_rental": "docking_station",
    "brand": "BiZi",
    "brand:wikidata": "Q953933",
    "capacity": "21",
    "mapillary": "218672949611403",
    "name": "C/ Pablo Gargallo - C/ Jardines de Atenas",
    "network": "BiZi",
    "network:wikidata": "Q953933",
    "operator": "Clear Channel",
    "ref": "85"
  }
},
{
  "type": "node",
  "id": 1273425516,
  "lat": 41.6582718,
  "lon": -0.8858194,
  "tags": {
    "amenity": "bicycle_rental",
    "bicycle_rental": "docking_station",
    "brand": "BiZi",
    "brand:wikidata": "Q953933",
    "capacity": "21",
    "mapillary": "5511096138962021",
    "name": "Pº Echegaray y Caballero - C/ Postigo del Ebro",
    "network": "BiZi",
    "network:wikidata": "Q953933",
    "operator": "Clear Channel",
    "ref": "89"
  }
},
{
  "type": "node",
  "id": 1273425521,
  "lat": 41.6530965,
  "lon": -0.8582742,
  "tags": {
    "amenity": "bicycle_rental",
    "bicycle_rental": "docking_station",
    "brand": "BiZi",
    "brand:wikidata": "Q953933",
    "capacity": "21",
    "mapillary": "1133515153781783",
    "name": "Pº de La Ribera - Pasarela Azud",
    "network": "BiZi",
    "network:wikidata": "Q953933",
    "operator": "Clear Channel",
    "ref": "23"
  }
},
{
  "type": "node",
  "id": 1273425525,
  "lat": 41.6555406,
  "lon": -0.8780333,
  "tags": {
    "amenity": "bicycle_rental",
    "bicycle_rental": "docking_station",
    "brand": "BiZi",
    "brand:wikidata": "Q953933",
    "capacity": "21",
    "mapillary": "557093065252964",
    "name": "Plaza del Pilar - Edificio Turismo",
    "network": "BiZi",
    "network:wikidata": "Q953933",
    "operator": "Clear Channel",
    "ref": "33",
    "wheelchair": "no"
  }
},
{
  "type": "node",
  "id": 1273425528,
  "lat": 41.6589885,
  "lon": -0.8653040,
  "tags": {
    "amenity": "bicycle_rental",
    "bicycle_rental": "docking_station",
    "brand": "BiZi",
    "brand:wikidata": "Q953933",
    "capacity": "21",
    "mapillary": "373189910739296",
    "name": "Pº Longares - C/ Fuendejalón",
    "network": "BiZi",
    "network:wikidata": "Q953933",
    "operator": "Clear Channel",
    "ref": "95"
  }
},
{
  "type": "node",
  "id": 1273483389,
  "lat": 41.6521001,
  "lon": -0.8730262,
  "tags": {
    "amenity": "bicycle_rental",
    "bicycle_rental": "docking_station",
    "brand": "BiZi",
    "brand:wikidata": "Q953933",
    "capacity": "21",
    "mapillary": "2884097138472685",
    "name": "Plaza Magdalena",
    "network": "BiZi",
    "network:wikidata": "Q953933",
    "operator": "Clear Channel",
    "ref": "34"
  }
},
{
  "type": "node",
  "id": 1317225342,
  "lat": 41.6702966,
  "lon": -0.8860515,
  "tags": {
    "amenity": "bicycle_rental",
    "bicycle_rental": "docking_station",
    "brand": "BiZi",
    "brand:wikidata": "Q953933",
    "capacity": "21",
    "check_date": "2023-03-30",
    "mapillary": "3898220613606005",
    "name": "C/ Pablo Neruda - C/ Averroes",
    "network": "BiZi",
    "network:wikidata": "Q953933",
    "operator": "Clear Channel",
    "ref": "66"
  }
},
{
  "type": "node",
  "id": 1359641274,
  "lat": 41.6711664,
  "lon": -0.8892444,
  "tags": {
    "amenity": "bicycle_rental",
    "bicycle_rental": "docking_station",
    "brand": "BiZi",
    "brand:wikidata": "Q953933",
    "capacity": "21",
    "mapillary": "893737034535593",
    "name": "Avda. Mª Zambrano - C/ Ildefonso Manuel Gil",
    "network": "BiZi",
    "network:wikidata": "Q953933",
    "operator": "Clear Channel",
    "ref": "70",
    "source": "survey"
  }
},
{
  "type": "node",
  "id": 1362476320,
  "lat": 41.6379189,
  "lon": -0.8952620,
  "tags": {
    "amenity": "bicycle_rental",
    "bicycle_rental": "docking_station",
    "brand": "BiZi",
    "brand:wikidata": "Q953933",
    "capacity": "21",
    "mapillary": "333581088108646",
    "name": "Luis Vives - Manuel Lasala",
    "network": "BiZi",
    "network:wikidata": "Q953933",
    "operator": "Clear Channel",
    "ref": "107"
  }
},
{
  "type": "node",
  "id": 1486327373,
  "lat": 41.6407238,
  "lon": -0.9142167,
  "tags": {
    "amenity": "bicycle_rental",
    "bicycle_rental": "docking_station",
    "brand": "BiZi",
    "brand:wikidata": "Q953933",
    "capacity": "21",
    "mapillary": "4208993599131681",
    "name": "Vía Hispanidad - Avda. Gómez Laguna",
    "network": "BiZi",
    "network:wikidata": "Q953933",
    "operator": "Clear Channel",
    "ref": "113"
  }
},
{
  "type": "node",
  "id": 1486327382,
  "lat": 41.6427510,
  "lon": -0.9075337,
  "tags": {
    "amenity": "bicycle_rental",
    "bicycle_rental": "docking_station",
    "brand": "BiZi",
    "brand:wikidata": "Q953933",
    "capacity": "21",
    "mapillary": "4244969102203336",
    "name": "Avda. Gómez Laguna nº 6",
    "network": "BiZi",
    "network:wikidata": "Q953933",
    "operator": "Clear Channel",
    "ref": "122"
  }
},
{
  "type": "node",
  "id": 1486327387,
  "lat": 41.6438991,
  "lon": -0.9156569,
  "tags": {
    "amenity": "bicycle_rental",
    "bicycle_rental": "docking_station",
    "brand": "BiZi",
    "brand:wikidata": "Q953933",
    "capacity": "21",
    "mapillary": "1156293031462196",
    "network": "BiZi",
    "network:wikidata": "Q953933",
    "operator": "Clear Channel",
    "ref": "114"
  }
},
{
  "type": "node",
  "id": 1486327391,
  "lat": 41.6450340,
  "lon": -0.9116272,
  "tags": {
    "amenity": "bicycle_rental",
    "bicycle_rental": "docking_station",
    "brand": "BiZi",
    "brand:wikidata": "Q953933",
    "capacity": "21",
    "mapillary": "907399343447592",
    "name": "Avda. Duquesa Villahermosa - Avda. Juan Carlos I",
    "network": "BiZi",
    "network:wikidata": "Q953933",
    "operator": "Clear Channel",
    "ref": "117"
  }
},
{
  "type": "node",
  "id": 1486362467,
  "lat": 41.6482510,
  "lon": -0.9133287,
  "tags": {
    "amenity": "bicycle_rental",
    "bicycle_rental": "docking_station",
    "brand": "BiZi",
    "brand:wikidata": "Q953933",
    "capacity": "21",
    "mapillary": "452154799406562",
    "name": "C/ Ciudadela - C/ Andrés Vicente",
    "network": "BiZi",
    "network:wikidata": "Q953933",
    "operator": "Clear Channel",
    "ref": "116"
  }
},
{
  "type": "node",
  "id": 1496408677,
  "lat": 41.6364719,
  "lon": -0.9123895,
  "tags": {
    "amenity": "bicycle_rental",
    "bicycle_rental": "docking_station",
    "brand": "BiZi",
    "brand:wikidata": "Q953933",
    "capacity": "21",
    "mapillary": "1137519906673825",
    "name": "Vía Hispanidad - Avda. Sainz de Varanda",
    "network": "BiZi",
    "network:wikidata": "Q953933",
    "operator": "Clear Channel",
    "ref": "112"
  }
},
{
  "type": "node",
  "id": 1805473434,
  "lat": 41.6447152,
  "lon": -0.8816778,
  "tags": {
    "amenity": "bicycle_rental",
    "bicycle_rental": "docking_station",
    "brand": "BiZi",
    "brand:wikidata": "Q953933",
    "capacity": "21",
    "mapillary": "362584231861088",
    "name": "C/ Lacarra de Miguel - C/ San Vicente Mártir",
    "network": "BiZi",
    "network:wikidata": "Q953933",
    "operator": "Clear Channel",
    "ref": "103"
  }
},
{
  "type": "node",
  "id": 1985107531,
  "lat": 41.6629888,
  "lon": -0.8711370,
  "tags": {
    "amenity": "bicycle_rental",
    "bicycle_rental": "docking_station",
    "brand": "BiZi",
    "brand:wikidata": "Q953933",
    "capacity": "21",
    "mapillary": "329335662047980",
    "name": "C/ Sangüesa Castañosa - C/ F. Oliván Bayle",
    "network": "BiZi",
    "network:wikidata": "Q953933",
    "operator": "Clear Channel",
    "ref": "60",
    "source": "survey"
  }
},
{
  "type": "node",
  "id": 2683629607,
  "lat": 41.6865862,
  "lon": -0.8743084,
  "tags": {
    "amenity": "bicycle_rental",
    "capacity": "21",
    "mapillary": "346342280242827",
    "name": "Avda. Majas de Goya - Eroski",
    "network": "BiZi",
    "operator": "Clear Channel",
    "ref": "83"
  }
},
{
  "type": "node",
  "id": 3263669470,
  "lat": 41.6407432,
  "lon": -0.8901681,
  "tags": {
    "amenity": "bicycle_rental",
    "bicycle_rental": "docking_station",
    "brand": "BiZi",
    "brand:wikidata": "Q953933",
    "capacity": "21",
    "mapillary": "947236576028632",
    "name": "C/ San Juan de la Cruz - C/ Manuel Lasala",
    "network": "BiZi",
    "network:wikidata": "Q953933",
    "operator": "Clear Channel",
    "ref": "92"
  }
},
{
  "type": "node",
  "id": 3723406049,
  "lat": 41.6410174,
  "lon": -0.8944103,
  "tags": {
    "amenity": "bicycle_rental",
    "bicycle_rental": "docking_station",
    "brand": "BiZi",
    "brand:wikidata": "Q953933",
    "capacity": "21",
    "mapillary": "143788361046941",
    "name": "Plaza de San Francisco - La Salle",
    "network": "BiZi",
    "network:wikidata": "Q953933",
    "operator": "Clear Channel",
    "ref": "91",
    "source": "survey"
  }
},
{
  "type": "node",
  "id": 3768722530,
  "lat": 41.6664105,
  "lon": -0.8868855,
  "tags": {
    "amenity": "bicycle_rental",
    "bicycle_rental": "docking_station",
    "brand": "BiZi",
    "brand:wikidata": "Q953933",
    "capacity": "21",
    "check_date": "2023-12-10",
    "mapillary": "919612541933394",
    "name": "Avda. G. Gómez de Avellaneda - Intercambiador",
    "network": "BiZi",
    "network:wikidata": "Q953933",
    "operator": "Clear Channel",
    "ref": "65"
  }
},
{
  "type": "node",
  "id": 4188113004,
  "lat": 41.6483884,
  "lon": -0.8799194,
  "tags": {
    "amenity": "bicycle_rental",
    "bicycle_rental": "docking_station",
    "brand": "BiZi",
    "brand:wikidata": "Q953933",
    "capacity": "21",
    "mapillary": "871269556911845",
    "name": "Plaza de los Sitios",
    "network": "BiZi",
    "network:wikidata": "Q953933",
    "operator": "Clear Channel",
    "ref": "25"
  }
},
{
  "type": "node",
  "id": 4200591824,
  "lat": 41.6461017,
  "lon": -0.8852371,
  "tags": {
    "amenity": "bicycle_rental",
    "bicycle_rental": "docking_station",
    "brand": "BiZi",
    "brand:wikidata": "Q953933",
    "capacity": "21",
    "mapillary": "499779144579859",
    "name": "Glorieta Sasera",
    "network": "BiZi",
    "network:wikidata": "Q953933",
    "operator": "Clear Channel",
    "ref": "98"
  }
},
{
  "type": "node",
  "id": 4391753971,
  "lat": 41.6543479,
  "lon": -0.8842389,
  "tags": {
    "amenity": "bicycle_rental",
    "bicycle_rental": "docking_station",
    "brand": "BiZi",
    "brand:wikidata": "Q953933",
    "capacity": "21",
    "mapillary": "159899756056056",
    "name": "Avda. César Augusto - Avda. Conde Aranda",
    "network": "BiZi",
    "network:wikidata": "Q953933",
    "operator": "Clear Channel",
    "ref": "21",
    "source": "survey"
  }
},
{
  "type": "node",
  "id": 4396699733,
  "lat": 41.6663607,
  "lon": -0.8763324,
  "tags": {
    "amenity": "bicycle_rental",
    "bicycle_rental": "docking_station",
    "brand": "BiZi",
    "brand:wikidata": "Q953933",
    "capacity": "21",
    "mapillary": "207698677567393",
    "name": "Avda. Valle de Broto - Parque Tío Jorge",
    "network": "BiZi",
    "network:wikidata": "Q953933",
    "operator": "Clear Channel",
    "ref": "63"
  }
},
{
  "type": "node",
  "id": 4396699745,
  "lat": 41.6693780,
  "lon": -0.8765126,
  "tags": {
    "amenity": "bicycle_rental",
    "bicycle_rental": "docking_station",
    "brand": "BiZi",
    "brand:wikidata": "Q953933",
    "capacity": "21",
    "mapillary": "111496570987763",
    "name": "Avda. Salvador Allende - C/ Rubio de Francia",
    "network": "BiZi",
    "network:wikidata": "Q953933",
    "operator": "Clear Channel",
    "ref": "75"
  }
},
{
  "type": "node",
  "id": 4406184498,
  "lat": 41.6512811,
  "lon": -0.8777517,
  "tags": {
    "amenity": "bicycle_rental",
    "bicycle_rental": "docking_station",
    "brand": "BiZi",
    "brand:wikidata": "Q953933",
    "capacity": "21",
    "mapillary": "929918941135292",
    "name": "C/ Pedro Joaquín Soler - Coso",
    "network": "BiZi",
    "network:wikidata": "Q953933",
    "operator": "Clear Channel",
    "ref": "102",
    "source": "survey"
  }
},
{
  "type": "node",
  "id": 4434567889,
  "lat": 41.6685913,
  "lon": -0.8900605,
  "tags": {
    "amenity": "bicycle_rental",
    "bicycle_rental": "docking_station",
    "brand": "BiZi",
    "brand:wikidata": "Q953933",
    "capacity": "21",
    "mapillary": "256650459528485",
    "name": "Avda. G. Gómez de Avellaneda - C/ Clara Campoamor",
    "network": "BiZi",
    "network:wikidata": "Q953933",
    "operator": "Clear Channel",
    "ref": "67",
    "source": "survey"
  }
},
{
  "type": "node",
  "id": 4464862119,
  "lat": 41.6773594,
  "lon": -0.8890676,
  "tags": {
    "amenity": "bicycle_rental",
    "bicycle_rental": "docking_station",
    "brand": "BiZi",
    "brand:wikidata": "Q953933",
    "capacity": "21",
    "mapillary": "800683804215309",
    "name": "Avda. Mª Zambrano - C/ Pablo Iglesias",
    "network": "BiZi",
    "network:wikidata": "Q953933",
    "operator": "Clear Channel",
    "ref": "72",
    "source": "survey"
  }
},
{
  "type": "node",
  "id": 4542910761,
  "lat": 41.6477583,
  "lon": -0.8839484,
  "tags": {
    "amenity": "bicycle_rental",
    "bicycle_rental": "docking_station",
    "brand": "BiZi",
    "brand:wikidata": "Q953933",
    "capacity": "30",
    "mapillary": "192097202749218",
    "name": "P° Constitución - Plaza Aragón",
    "network": "BiZi",
    "network:wikidata": "Q953933",
    "operator": "Clear Channel",
    "ref": "17",
    "source": "survey"
  }
},
{
  "type": "node",
  "id": 4543494763,
  "lat": 41.6492594,
  "lon": -0.8870536,
  "tags": {
    "amenity": "bicycle_rental",
    "bicycle_rental": "docking_station",
    "brand": "BiZi",
    "brand:wikidata": "Q953933",
    "capacity": "21",
    "mapillary": "466865074373670",
    "name": "P° Pamplona - Puerta del Carmen",
    "network": "BiZi",
    "network:wikidata": "Q953933",
    "operator": "Clear Channel",
    "ref": "26"
  }
},
{
  "type": "node",
  "id": 4547754667,
  "lat": 41.6554830,
  "lon": -0.8589126,
  "tags": {
    "amenity": "bicycle_rental",
    "bicycle_rental": "docking_station",
    "brand": "BiZi",
    "brand:wikidata": "Q953933",
    "capacity": "21",
    "mapillary": "813420399553293",
    "name": "C/ Balbino Orensanz - C/ Carmelo Betoré Bergua",
    "network": "BiZi",
    "network:wikidata": "Q953933",
    "operator": "Clear Channel",
    "ref": "56"
  }
},
{
  "type": "node",
  "id": 4548119482,
  "lat": 41.6702395,
  "lon": -0.8712782,
  "tags": {
    "amenity": "bicycle_rental",
    "bicycle_rental": "docking_station",
    "brand": "BiZi",
    "brand:wikidata": "Q953933",
    "capacity": "21",
    "mapillary": "306201507552228",
    "name": "Avda. San Juan de la Peña - C/ Juslibol",
    "network": "BiZi",
    "network:wikidata": "Q953933",
    "operator": "Clear Channel",
    "ref": "76"
  }
},
{
  "type": "node",
  "id": 4584550682,
  "lat": 41.6733839,
  "lon": -0.8840899,
  "tags": {
    "amenity": "bicycle_rental",
    "bicycle_rental": "docking_station",
    "brand": "BiZi",
    "brand:wikidata": "Q953933",
    "capacity": "21",
    "mapillary": "219367426194334",
    "name": "Avda. Pablo Ruiz Picasso - C/ Pintor Luis Cernuda",
    "network": "BiZi",
    "network:wikidata": "Q953933",
    "operator": "Clear Channel",
    "ref": "74",
    "source": "survey"
  }
},
{
  "type": "node",
  "id": 4586011368,
  "lat": 41.6667252,
  "lon": -0.8717129,
  "tags": {
    "amenity": "bicycle_rental",
    "bicycle_rental": "docking_station",
    "brand": "BiZi",
    "brand:wikidata": "Q953933",
    "capacity": "21",
    "mapillary": "479886723258543",
    "name": "Avda. Marqués de la Cadena - Avda. San Juan de la Peña",
    "network": "BiZi",
    "network:wikidata": "Q953933",
    "operator": "Clear Channel",
    "ref": "62"
  }
},
{
  "type": "node",
  "id": 4632067927,
  "lat": 41.6475030,
  "lon": -0.8802388,
  "tags": {
    "amenity": "bicycle_rental",
    "bicycle_rental": "docking_station",
    "brand": "BiZi",
    "brand:wikidata": "Q953933",
    "capacity": "21",
    "mapillary": "1169778956861278",
    "name": "Pº Constitucion - C/ Mefisto",
    "network": "BiZi",
    "network:wikidata": "Q953933",
    "operator": "Clear Channel",
    "ref": "97"
  }
},
{
  "type": "node",
  "id": 4640667390,
  "lat": 41.6490802,
  "lon": -0.8823111,
  "tags": {
    "amenity": "bicycle_rental",
    "bicycle_rental": "docking_station",
    "brand": "BiZi",
    "brand:wikidata": "Q953933",
    "capacity": "21",
    "mapillary": "932801934219520",
    "name": "Plaza de Santa Engracia",
    "network": "BiZi",
    "network:wikidata": "Q953933",
    "operator": "Clear Channel",
    "ref": "99"
  }
},
{
  "type": "node",
  "id": 4657137601,
  "lat": 41.6453250,
  "lon": -0.8775901,
  "tags": {
    "amenity": "bicycle_rental",
    "bicycle_rental": "docking_station",
    "brand": "BiZi",
    "brand:wikidata": "Q953933",
    "capacity": "21",
    "mapillary": "207414684256147",
    "name": "Cno. de las Torres - Avda. Cesáreo Alierta",
    "network": "BiZi",
    "network:wikidata": "Q953933",
    "operator": "Clear Channel",
    "ref": "39"
  }
},
{
  "type": "node",
  "id": 4695652212,
  "lat": 41.6739513,
  "lon": -0.8713607,
  "tags": {
    "amenity": "bicycle_rental",
    "bicycle_rental": "docking_station",
    "brand": "BiZi",
    "brand:wikidata": "Q953933",
    "capacity": "21",
    "mapillary": "841828550076465",
    "name": "Avda. San Juan de la Peña - C/ Somport",
    "network": "BiZi",
    "network:wikidata": "Q953933",
    "operator": "Clear Channel",
    "ref": "78"
  }
},
{
  "type": "node",
  "id": 4695658150,
  "lat": 41.6779478,
  "lon": -0.8713141,
  "tags": {
    "amenity": "bicycle_rental",
    "bicycle_rental": "docking_station",
    "brand": "BiZi",
    "brand:wikidata": "Q953933",
    "capacity": "21",
    "mapillary": "782564222629984",
    "name": "Avda. Academia Gral. Militar - Avda. Salvador Allende",
    "network": "BiZi",
    "network:wikidata": "Q953933",
    "operator": "Clear Channel",
    "ref": "80"
  }
},
{
  "type": "node",
  "id": 4720722351,
  "lat": 41.6660919,
  "lon": -0.8811866,
  "tags": {
    "amenity": "bicycle_rental",
    "bicycle_rental": "docking_station",
    "brand": "BiZi",
    "brand:wikidata": "Q953933",
    "capacity": "21",
    "check_date": "2023-03-30",
    "mapillary": "893398244540167",
    "name": "Avda. Valle de Broto - Avda. Pirineos",
    "network": "BiZi",
    "network:wikidata": "Q953933",
    "operator": "Clear Channel",
    "ref": "64"
  }
},
{
  "type": "node",
  "id": 4730527229,
  "lat": 41.6464720,
  "lon": -0.8876826,
  "tags": {
    "amenity": "bicycle_rental",
    "bicycle_rental": "docking_station",
    "brand": "BiZi",
    "brand:wikidata": "Q953933",
    "capacity": "21",
    "mapillary": "170366681647432",
    "name": "C/ Gran Vía - Facultad Económicas",
    "network": "BiZi",
    "network:wikidata": "Q953933",
    "operator": "Clear Channel",
    "ref": "45"
  }
},
{
  "type": "node",
  "id": 4734810398,
  "lat": 41.6583270,
  "lon": -0.9086890,
  "tags": {
    "amenity": "bicycle_rental",
    "bicycle_rental": "docking_station",
    "brand": "BiZi",
    "brand:wikidata": "Q953933",
    "capacity": "30",
    "mapillary": "123004439788135",
    "name": "Estación Intermodal Delicias (Salidas)",
    "network": "BiZi",
    "network:wikidata": "Q953933",
    "operator": "Clear Channel",
    "ref": "14"
  }
},
{
  "type": "node",
  "id": 4787251396,
  "lat": 41.6484344,
  "lon": -0.8668557,
  "tags": {
    "amenity": "bicycle_rental",
    "bicycle_rental": "docking_station",
    "brand": "BiZi",
    "brand:wikidata": "Q953933",
    "capacity": "21",
    "mapillary": "478716273251267",
    "name": "Cno. de las Torres - C/ Silvestre Pérez",
    "network": "BiZi",
    "network:wikidata": "Q953933",
    "operator": "Clear Channel",
    "ref": "36"
  }
},
{
  "type": "node",
  "id": 4853608831,
  "lat": 41.6330521,
  "lon": -0.9049092,
  "tags": {
    "amenity": "bicycle_rental",
    "bicycle_rental": "docking_station",
    "brand": "BiZi",
    "brand:wikidata": "Q953933",
    "capacity": "21",
    "mapillary": "199332441880550",
    "name": "Pº Isabel la Católica - Vía Hispanidad",
    "network": "BiZi",
    "network:wikidata": "Q953933",
    "operator": "Clear Channel",
    "ref": "110"
  }
},
{
  "type": "node",
  "id": 5220189164,
  "lat": 41.6600514,
  "lon": -0.8963179,
  "tags": {
    "amenity": "bicycle_rental",
    "bicycle_rental": "docking_station",
    "brand": "BiZi",
    "brand:wikidata": "Q953933",
    "capacity": "21",
    "mapillary": "281709963690969",
    "name": "Avda. Pablo Gargallo - C/ Ignacio Menaya",
    "network": "BiZi",
    "network:wikidata": "Q953933",
    "operator": "Clear Channel",
    "ref": "31"
  }
},
{
  "type": "node",
  "id": 5220485983,
  "lat": 41.6375782,
  "lon": -0.8906057,
  "tags": {
    "amenity": "bicycle_rental",
    "bicycle_rental": "docking_station",
    "brand": "BiZi",
    "brand:wikidata": "Q953933",
    "capacity": "21",
    "mapillary": "1224403548041615",
    "name": "C/ Arzobispo Morcillo - C/ Fernando de Antequera",
    "network": "BiZi",
    "network:wikidata": "Q953933",
    "operator": "Clear Channel",
    "ref": "106"
  }
},
{
  "type": "node",
  "id": 5225493540,
  "lat": 41.6824358,
  "lon": -0.8712012,
  "tags": {
    "amenity": "bicycle_rental",
    "bicycle_rental": "docking_station",
    "brand": "BiZi",
    "brand:wikidata": "Q953933",
    "capacity": "21",
    "mapillary": "759728484722535",
    "name": "Plaza Tauromaquia - Avda. Academia Gral. Militar",
    "network": "BiZi",
    "network:wikidata": "Q953933",
    "operator": "Clear Channel",
    "ref": "81"
  }
},
{
  "type": "node",
  "id": 5225493541,
  "lat": 41.6854013,
  "lon": -0.8711522,
  "tags": {
    "amenity": "bicycle_rental",
    "capacity": "21",
    "mapillary": "4298951160138086",
    "name": "C/ Los Leñadores - Avda. Academia Gral. Militar",
    "network": "BiZi",
    "operator": "Clear Channel",
    "ref": "82"
  }
},
{
  "type": "node",
  "id": 5299275164,
  "lat": 41.6595647,
  "lon": -0.9150941,
  "tags": {
    "amenity": "bicycle_rental",
    "bicycle_rental": "docking_station",
    "brand": "BiZi",
    "brand:wikidata": "Q953933",
    "capacity": "30",
    "mapillary": "828103758064441",
    "name": "Estación Intermodal Delicias (Llegadas)",
    "network": "BiZi",
    "network:wikidata": "Q953933",
    "operator": "Clear Channel",
    "ref": "22"
  }
},
{
  "type": "node",
  "id": 5352437500,
  "lat": 41.6525767,
  "lon": -0.9023917,
  "tags": {
    "amenity": "bicycle_rental",
    "bicycle_rental": "docking_station",
    "brand": "BiZi",
    "brand:wikidata": "Q953933",
    "capacity": "21",
    "mapillary": "466202084659696",
    "name": "C/ Graus - C/ Unceta",
    "network": "BiZi",
    "network:wikidata": "Q953933",
    "operator": "Clear Channel",
    "ref": "129"
  }
},
{
  "type": "node",
  "id": 5370279295,
  "lat": 41.6449247,
  "lon": -0.8685434,
  "tags": {
    "amenity": "bicycle_rental",
    "bicycle_rental": "docking_station",
    "brand": "BiZi",
    "brand:wikidata": "Q953933",
    "capacity": "21",
    "mapillary": "1375999042755636",
    "network": "BiZi",
    "network:wikidata": "Q953933",
    "operator": "Clear Channel",
    "ref": "37"
  }
}

  ]
}
